(['/srv/maum/aicc/src/sdn/sdn.py'],
 ['/srv/maum/aicc/src/sdn', '/srv/maum/aicc/src/sdn'],
 ['codecs'],
 [],
 [],
 [],
 False,
 False,
 '2.7.5 (default, Nov 16 2020, 22:23:17) \n[GCC 4.8.5 20150623 (Red Hat 4.8.5-44)]',
 [('pyi_rth_pkgres',
   '/home/mindslab/.local/lib/python2.7/site-packages/PyInstaller/loader/rthooks/pyi_rth_pkgres.py',
   'PYSOURCE'),
  ('pyi_rth_multiprocessing',
   '/home/mindslab/.local/lib/python2.7/site-packages/PyInstaller/loader/rthooks/pyi_rth_multiprocessing.py',
   'PYSOURCE'),
  ('sdn', '/srv/maum/aicc/src/sdn/sdn.py', 'PYSOURCE')],
 [('multiprocessing.forking',
   '/usr/lib64/python2.7/multiprocessing/forking.py',
   'PYMODULE'),
  ('random', '/usr/lib64/python2.7/random.py', 'PYMODULE'),
  ('types', '/usr/lib64/python2.7/types.py', 'PYMODULE'),
  ('warnings', '/usr/lib64/python2.7/warnings.py', 'PYMODULE'),
  ('linecache', '/usr/lib64/python2.7/linecache.py', 'PYMODULE'),
  ('__future__', '/usr/lib64/python2.7/__future__.py', 'PYMODULE'),
  ('functools', '/usr/lib64/python2.7/functools.py', 'PYMODULE'),
  ('pickle', '/usr/lib64/python2.7/pickle.py', 'PYMODULE'),
  ('doctest', '/usr/lib64/python2.7/doctest.py', 'PYMODULE'),
  ('collections', '/usr/lib64/python2.7/collections.py', 'PYMODULE'),
  ('dummy_thread', '/usr/lib64/python2.7/dummy_thread.py', 'PYMODULE'),
  ('heapq', '/usr/lib64/python2.7/heapq.py', 'PYMODULE'),
  ('keyword', '/usr/lib64/python2.7/keyword.py', 'PYMODULE'),
  ('_abcoll', '/usr/lib64/python2.7/_abcoll.py', 'PYMODULE'),
  ('abc', '/usr/lib64/python2.7/abc.py', 'PYMODULE'),
  ('_weakrefset', '/usr/lib64/python2.7/_weakrefset.py', 'PYMODULE'),
  ('tempfile', '/usr/lib64/python2.7/tempfile.py', 'PYMODULE'),
  ('io', '/usr/lib64/python2.7/io.py', 'PYMODULE'),
  ('pdb', '/usr/lib64/python2.7/pdb.py', 'PYMODULE'),
  ('shlex', '/usr/lib64/python2.7/shlex.py', 'PYMODULE'),
  ('posixpath', '/usr/lib64/python2.7/posixpath.py', 'PYMODULE'),
  ('genericpath', '/usr/lib64/python2.7/genericpath.py', 'PYMODULE'),
  ('stat', '/usr/lib64/python2.7/stat.py', 'PYMODULE'),
  ('pprint', '/usr/lib64/python2.7/pprint.py', 'PYMODULE'),
  ('repr', '/usr/lib64/python2.7/repr.py', 'PYMODULE'),
  ('bdb', '/usr/lib64/python2.7/bdb.py', 'PYMODULE'),
  ('fnmatch', '/usr/lib64/python2.7/fnmatch.py', 'PYMODULE'),
  ('cmd', '/usr/lib64/python2.7/cmd.py', 'PYMODULE'),
  ('difflib', '/usr/lib64/python2.7/difflib.py', 'PYMODULE'),
  ('unittest', '/usr/lib64/python2.7/unittest/__init__.py', 'PYMODULE'),
  ('unittest.signals',
   '/usr/lib64/python2.7/unittest/signals.py',
   'PYMODULE'),
  ('weakref', '/usr/lib64/python2.7/weakref.py', 'PYMODULE'),
  ('copy', '/usr/lib64/python2.7/copy.py', 'PYMODULE'),
  ('UserDict', '/usr/lib64/python2.7/UserDict.py', 'PYMODULE'),
  ('unittest.main', '/usr/lib64/python2.7/unittest/main.py', 'PYMODULE'),
  ('optparse', '/usr/lib64/python2.7/optparse.py', 'PYMODULE'),
  ('gettext', '/usr/lib64/python2.7/gettext.py', 'PYMODULE'),
  ('tokenize', '/usr/lib64/python2.7/tokenize.py', 'PYMODULE'),
  ('token', '/usr/lib64/python2.7/token.py', 'PYMODULE'),
  ('locale', '/usr/lib64/python2.7/locale.py', 'PYMODULE'),
  ('encodings.aliases',
   '/usr/lib64/python2.7/encodings/aliases.py',
   'PYMODULE'),
  ('encodings', '/usr/lib64/python2.7/encodings/__init__.py', 'PYMODULE'),
  ('encodings.idna', '/usr/lib64/python2.7/encodings/idna.py', 'PYMODULE'),
  ('stringprep', '/usr/lib64/python2.7/stringprep.py', 'PYMODULE'),
  ('encodings.mbcs', '/usr/lib64/python2.7/encodings/mbcs.py', 'PYMODULE'),
  ('encodings.raw_unicode_escape',
   '/usr/lib64/python2.7/encodings/raw_unicode_escape.py',
   'PYMODULE'),
  ('encodings.gb18030',
   '/usr/lib64/python2.7/encodings/gb18030.py',
   'PYMODULE'),
  ('encodings.shift_jisx0213',
   '/usr/lib64/python2.7/encodings/shift_jisx0213.py',
   'PYMODULE'),
  ('encodings.ascii', '/usr/lib64/python2.7/encodings/ascii.py', 'PYMODULE'),
  ('encodings.cp861', '/usr/lib64/python2.7/encodings/cp861.py', 'PYMODULE'),
  ('encodings.cp860', '/usr/lib64/python2.7/encodings/cp860.py', 'PYMODULE'),
  ('encodings.cp863', '/usr/lib64/python2.7/encodings/cp863.py', 'PYMODULE'),
  ('encodings.cp862', '/usr/lib64/python2.7/encodings/cp862.py', 'PYMODULE'),
  ('encodings.cp865', '/usr/lib64/python2.7/encodings/cp865.py', 'PYMODULE'),
  ('encodings.big5hkscs',
   '/usr/lib64/python2.7/encodings/big5hkscs.py',
   'PYMODULE'),
  ('encodings.cp866', '/usr/lib64/python2.7/encodings/cp866.py', 'PYMODULE'),
  ('encodings.cp869', '/usr/lib64/python2.7/encodings/cp869.py', 'PYMODULE'),
  ('encodings.mac_latin2',
   '/usr/lib64/python2.7/encodings/mac_latin2.py',
   'PYMODULE'),
  ('encodings.hex_codec',
   '/usr/lib64/python2.7/encodings/hex_codec.py',
   'PYMODULE'),
  ('encodings.cp950', '/usr/lib64/python2.7/encodings/cp950.py', 'PYMODULE'),
  ('encodings.quopri_codec',
   '/usr/lib64/python2.7/encodings/quopri_codec.py',
   'PYMODULE'),
  ('quopri', '/usr/lib64/python2.7/quopri.py', 'PYMODULE'),
  ('encodings.utf_32_be',
   '/usr/lib64/python2.7/encodings/utf_32_be.py',
   'PYMODULE'),
  ('encodings.string_escape',
   '/usr/lib64/python2.7/encodings/string_escape.py',
   'PYMODULE'),
  ('encodings.cp1250',
   '/usr/lib64/python2.7/encodings/cp1250.py',
   'PYMODULE'),
  ('encodings.cp1251',
   '/usr/lib64/python2.7/encodings/cp1251.py',
   'PYMODULE'),
  ('encodings.cp1252',
   '/usr/lib64/python2.7/encodings/cp1252.py',
   'PYMODULE'),
  ('encodings.cp1253',
   '/usr/lib64/python2.7/encodings/cp1253.py',
   'PYMODULE'),
  ('encodings.cp1254',
   '/usr/lib64/python2.7/encodings/cp1254.py',
   'PYMODULE'),
  ('encodings.cp1255',
   '/usr/lib64/python2.7/encodings/cp1255.py',
   'PYMODULE'),
  ('encodings.cp1256',
   '/usr/lib64/python2.7/encodings/cp1256.py',
   'PYMODULE'),
  ('encodings.cp1257',
   '/usr/lib64/python2.7/encodings/cp1257.py',
   'PYMODULE'),
  ('encodings.cp1258',
   '/usr/lib64/python2.7/encodings/cp1258.py',
   'PYMODULE'),
  ('encodings.euc_jp',
   '/usr/lib64/python2.7/encodings/euc_jp.py',
   'PYMODULE'),
  ('encodings.hz', '/usr/lib64/python2.7/encodings/hz.py', 'PYMODULE'),
  ('encodings.mac_cyrillic',
   '/usr/lib64/python2.7/encodings/mac_cyrillic.py',
   'PYMODULE'),
  ('encodings.iso2022_kr',
   '/usr/lib64/python2.7/encodings/iso2022_kr.py',
   'PYMODULE'),
  ('encodings.unicode_internal',
   '/usr/lib64/python2.7/encodings/unicode_internal.py',
   'PYMODULE'),
  ('encodings.cp500', '/usr/lib64/python2.7/encodings/cp500.py', 'PYMODULE'),
  ('encodings.iso8859_10',
   '/usr/lib64/python2.7/encodings/iso8859_10.py',
   'PYMODULE'),
  ('encodings.iso8859_11',
   '/usr/lib64/python2.7/encodings/iso8859_11.py',
   'PYMODULE'),
  ('encodings.iso8859_13',
   '/usr/lib64/python2.7/encodings/iso8859_13.py',
   'PYMODULE'),
  ('encodings.iso8859_14',
   '/usr/lib64/python2.7/encodings/iso8859_14.py',
   'PYMODULE'),
  ('encodings.cp424', '/usr/lib64/python2.7/encodings/cp424.py', 'PYMODULE'),
  ('encodings.iso8859_16',
   '/usr/lib64/python2.7/encodings/iso8859_16.py',
   'PYMODULE'),
  ('encodings.cp1006',
   '/usr/lib64/python2.7/encodings/cp1006.py',
   'PYMODULE'),
  ('encodings.hp_roman8',
   '/usr/lib64/python2.7/encodings/hp_roman8.py',
   'PYMODULE'),
  ('encodings.charmap',
   '/usr/lib64/python2.7/encodings/charmap.py',
   'PYMODULE'),
  ('encodings.utf_32',
   '/usr/lib64/python2.7/encodings/utf_32.py',
   'PYMODULE'),
  ('encodings.latin_1',
   '/usr/lib64/python2.7/encodings/latin_1.py',
   'PYMODULE'),
  ('encodings.utf_16_be',
   '/usr/lib64/python2.7/encodings/utf_16_be.py',
   'PYMODULE'),
  ('encodings.cp737', '/usr/lib64/python2.7/encodings/cp737.py', 'PYMODULE'),
  ('encodings.utf_16',
   '/usr/lib64/python2.7/encodings/utf_16.py',
   'PYMODULE'),
  ('encodings.cp437', '/usr/lib64/python2.7/encodings/cp437.py', 'PYMODULE'),
  ('encodings.mac_roman',
   '/usr/lib64/python2.7/encodings/mac_roman.py',
   'PYMODULE'),
  ('encodings.mac_centeuro',
   '/usr/lib64/python2.7/encodings/mac_centeuro.py',
   'PYMODULE'),
  ('encodings.mac_croatian',
   '/usr/lib64/python2.7/encodings/mac_croatian.py',
   'PYMODULE'),
  ('encodings.punycode',
   '/usr/lib64/python2.7/encodings/punycode.py',
   'PYMODULE'),
  ('encodings.unicode_escape',
   '/usr/lib64/python2.7/encodings/unicode_escape.py',
   'PYMODULE'),
  ('encodings.bz2_codec',
   '/usr/lib64/python2.7/encodings/bz2_codec.py',
   'PYMODULE'),
  ('encodings.rot_13',
   '/usr/lib64/python2.7/encodings/rot_13.py',
   'PYMODULE'),
  ('encodings.cp874', '/usr/lib64/python2.7/encodings/cp874.py', 'PYMODULE'),
  ('encodings.cp875', '/usr/lib64/python2.7/encodings/cp875.py', 'PYMODULE'),
  ('encodings.cp720', '/usr/lib64/python2.7/encodings/cp720.py', 'PYMODULE'),
  ('encodings.tis_620',
   '/usr/lib64/python2.7/encodings/tis_620.py',
   'PYMODULE'),
  ('encodings.zlib_codec',
   '/usr/lib64/python2.7/encodings/zlib_codec.py',
   'PYMODULE'),
  ('encodings.iso2022_jp_2004',
   '/usr/lib64/python2.7/encodings/iso2022_jp_2004.py',
   'PYMODULE'),
  ('encodings.euc_jisx0213',
   '/usr/lib64/python2.7/encodings/euc_jisx0213.py',
   'PYMODULE'),
  ('encodings.ptcp154',
   '/usr/lib64/python2.7/encodings/ptcp154.py',
   'PYMODULE'),
  ('encodings.uu_codec',
   '/usr/lib64/python2.7/encodings/uu_codec.py',
   'PYMODULE'),
  ('encodings.utf_16_le',
   '/usr/lib64/python2.7/encodings/utf_16_le.py',
   'PYMODULE'),
  ('encodings.iso2022_jp_2',
   '/usr/lib64/python2.7/encodings/iso2022_jp_2.py',
   'PYMODULE'),
  ('encodings.iso2022_jp_3',
   '/usr/lib64/python2.7/encodings/iso2022_jp_3.py',
   'PYMODULE'),
  ('encodings.iso2022_jp_1',
   '/usr/lib64/python2.7/encodings/iso2022_jp_1.py',
   'PYMODULE'),
  ('encodings.mac_romanian',
   '/usr/lib64/python2.7/encodings/mac_romanian.py',
   'PYMODULE'),
  ('encodings.cp1026',
   '/usr/lib64/python2.7/encodings/cp1026.py',
   'PYMODULE'),
  ('encodings.mac_farsi',
   '/usr/lib64/python2.7/encodings/mac_farsi.py',
   'PYMODULE'),
  ('encodings.undefined',
   '/usr/lib64/python2.7/encodings/undefined.py',
   'PYMODULE'),
  ('encodings.mac_turkish',
   '/usr/lib64/python2.7/encodings/mac_turkish.py',
   'PYMODULE'),
  ('encodings.koi8_u',
   '/usr/lib64/python2.7/encodings/koi8_u.py',
   'PYMODULE'),
  ('encodings.koi8_r',
   '/usr/lib64/python2.7/encodings/koi8_r.py',
   'PYMODULE'),
  ('encodings.utf_8_sig',
   '/usr/lib64/python2.7/encodings/utf_8_sig.py',
   'PYMODULE'),
  ('encodings.iso2022_jp',
   '/usr/lib64/python2.7/encodings/iso2022_jp.py',
   'PYMODULE'),
  ('encodings.palmos',
   '/usr/lib64/python2.7/encodings/palmos.py',
   'PYMODULE'),
  ('encodings.mac_greek',
   '/usr/lib64/python2.7/encodings/mac_greek.py',
   'PYMODULE'),
  ('encodings.shift_jis_2004',
   '/usr/lib64/python2.7/encodings/shift_jis_2004.py',
   'PYMODULE'),
  ('encodings.gbk', '/usr/lib64/python2.7/encodings/gbk.py', 'PYMODULE'),
  ('encodings.mac_iceland',
   '/usr/lib64/python2.7/encodings/mac_iceland.py',
   'PYMODULE'),
  ('encodings.cp858', '/usr/lib64/python2.7/encodings/cp858.py', 'PYMODULE'),
  ('encodings.cp850', '/usr/lib64/python2.7/encodings/cp850.py', 'PYMODULE'),
  ('encodings.cp852', '/usr/lib64/python2.7/encodings/cp852.py', 'PYMODULE'),
  ('encodings.cp855', '/usr/lib64/python2.7/encodings/cp855.py', 'PYMODULE'),
  ('encodings.cp856', '/usr/lib64/python2.7/encodings/cp856.py', 'PYMODULE'),
  ('encodings.cp857', '/usr/lib64/python2.7/encodings/cp857.py', 'PYMODULE'),
  ('encodings.iso8859_4',
   '/usr/lib64/python2.7/encodings/iso8859_4.py',
   'PYMODULE'),
  ('encodings.iso8859_5',
   '/usr/lib64/python2.7/encodings/iso8859_5.py',
   'PYMODULE'),
  ('encodings.iso8859_6',
   '/usr/lib64/python2.7/encodings/iso8859_6.py',
   'PYMODULE'),
  ('encodings.iso8859_7',
   '/usr/lib64/python2.7/encodings/iso8859_7.py',
   'PYMODULE'),
  ('encodings.iso8859_1',
   '/usr/lib64/python2.7/encodings/iso8859_1.py',
   'PYMODULE'),
  ('encodings.iso8859_2',
   '/usr/lib64/python2.7/encodings/iso8859_2.py',
   'PYMODULE'),
  ('encodings.iso8859_3',
   '/usr/lib64/python2.7/encodings/iso8859_3.py',
   'PYMODULE'),
  ('encodings.gb2312',
   '/usr/lib64/python2.7/encodings/gb2312.py',
   'PYMODULE'),
  ('encodings.iso8859_8',
   '/usr/lib64/python2.7/encodings/iso8859_8.py',
   'PYMODULE'),
  ('encodings.iso8859_9',
   '/usr/lib64/python2.7/encodings/iso8859_9.py',
   'PYMODULE'),
  ('encodings.cp949', '/usr/lib64/python2.7/encodings/cp949.py', 'PYMODULE'),
  ('encodings.cp864', '/usr/lib64/python2.7/encodings/cp864.py', 'PYMODULE'),
  ('encodings.base64_codec',
   '/usr/lib64/python2.7/encodings/base64_codec.py',
   'PYMODULE'),
  ('encodings.cp037', '/usr/lib64/python2.7/encodings/cp037.py', 'PYMODULE'),
  ('encodings.utf_8', '/usr/lib64/python2.7/encodings/utf_8.py', 'PYMODULE'),
  ('encodings.mac_arabic',
   '/usr/lib64/python2.7/encodings/mac_arabic.py',
   'PYMODULE'),
  ('encodings.euc_kr',
   '/usr/lib64/python2.7/encodings/euc_kr.py',
   'PYMODULE'),
  ('encodings.utf_7', '/usr/lib64/python2.7/encodings/utf_7.py', 'PYMODULE'),
  ('encodings.shift_jis',
   '/usr/lib64/python2.7/encodings/shift_jis.py',
   'PYMODULE'),
  ('encodings.utf_32_le',
   '/usr/lib64/python2.7/encodings/utf_32_le.py',
   'PYMODULE'),
  ('encodings.euc_jis_2004',
   '/usr/lib64/python2.7/encodings/euc_jis_2004.py',
   'PYMODULE'),
  ('encodings.cp775', '/usr/lib64/python2.7/encodings/cp775.py', 'PYMODULE'),
  ('encodings.cp1140',
   '/usr/lib64/python2.7/encodings/cp1140.py',
   'PYMODULE'),
  ('encodings.big5', '/usr/lib64/python2.7/encodings/big5.py', 'PYMODULE'),
  ('encodings.iso8859_15',
   '/usr/lib64/python2.7/encodings/iso8859_15.py',
   'PYMODULE'),
  ('encodings.iso2022_jp_ext',
   '/usr/lib64/python2.7/encodings/iso2022_jp_ext.py',
   'PYMODULE'),
  ('encodings.johab', '/usr/lib64/python2.7/encodings/johab.py', 'PYMODULE'),
  ('encodings.cp932', '/usr/lib64/python2.7/encodings/cp932.py', 'PYMODULE'),
  ('textwrap', '/usr/lib64/python2.7/textwrap.py', 'PYMODULE'),
  ('getopt', '/usr/lib64/python2.7/getopt.py', 'PYMODULE'),
  ('unittest.runner', '/usr/lib64/python2.7/unittest/runner.py', 'PYMODULE'),
  ('unittest.loader', '/usr/lib64/python2.7/unittest/loader.py', 'PYMODULE'),
  ('unittest.suite', '/usr/lib64/python2.7/unittest/suite.py', 'PYMODULE'),
  ('unittest.case', '/usr/lib64/python2.7/unittest/case.py', 'PYMODULE'),
  ('unittest.result', '/usr/lib64/python2.7/unittest/result.py', 'PYMODULE'),
  ('unittest.util', '/usr/lib64/python2.7/unittest/util.py', 'PYMODULE'),
  ('inspect', '/usr/lib64/python2.7/inspect.py', 'PYMODULE'),
  ('dis', '/usr/lib64/python2.7/dis.py', 'PYMODULE'),
  ('opcode', '/usr/lib64/python2.7/opcode.py', 'PYMODULE'),
  ('StringIO', '/usr/lib64/python2.7/StringIO.py', 'PYMODULE'),
  ('copy_reg', '/usr/lib64/python2.7/copy_reg.py', 'PYMODULE'),
  ('multiprocessing.process',
   '/usr/lib64/python2.7/multiprocessing/process.py',
   'PYMODULE'),
  ('multiprocessing.util',
   '/usr/lib64/python2.7/multiprocessing/util.py',
   'PYMODULE'),
  ('atexit', '/usr/lib64/python2.7/atexit.py', 'PYMODULE'),
  ('re', '/usr/lib64/python2.7/re.py', 'PYMODULE'),
  ('sre_constants', '/usr/lib64/python2.7/sre_constants.py', 'PYMODULE'),
  ('sre', '/usr/lib64/python2.7/sre.py', 'PYMODULE'),
  ('sre_parse', '/usr/lib64/python2.7/sre_parse.py', 'PYMODULE'),
  ('sre_compile', '/usr/lib64/python2.7/sre_compile.py', 'PYMODULE'),
  ('pkg_resources',
   '/home/mindslab/.local/lib/python2.7/site-packages/pkg_resources/__init__.py',
   'PYMODULE'),
  ('pkg_resources._vendor.packaging.version',
   '/home/mindslab/.local/lib/python2.7/site-packages/pkg_resources/_vendor/packaging/version.py',
   'PYMODULE'),
  ('pkg_resources._vendor.packaging.markers',
   '/home/mindslab/.local/lib/python2.7/site-packages/pkg_resources/_vendor/packaging/markers.py',
   'PYMODULE'),
  ('pkg_resources._vendor.pyparsing',
   '/home/mindslab/.local/lib/python2.7/site-packages/pkg_resources/_vendor/pyparsing.py',
   'PYMODULE'),
  ('uuid', '/usr/lib64/python2.7/uuid.py', 'PYMODULE'),
  ('ctypes.util', '/usr/lib64/python2.7/ctypes/util.py', 'PYMODULE'),
  ('ctypes.macholib.dyld',
   '/usr/lib64/python2.7/ctypes/macholib/dyld.py',
   'PYMODULE'),
  ('ctypes.macholib',
   '/usr/lib64/python2.7/ctypes/macholib/__init__.py',
   'PYMODULE'),
  ('ctypes.macholib.dylib',
   '/usr/lib64/python2.7/ctypes/macholib/dylib.py',
   'PYMODULE'),
  ('ctypes.macholib.framework',
   '/usr/lib64/python2.7/ctypes/macholib/framework.py',
   'PYMODULE'),
  ('ctypes', '/usr/lib64/python2.7/ctypes/__init__.py', 'PYMODULE'),
  ('ctypes._endian', '/usr/lib64/python2.7/ctypes/_endian.py', 'PYMODULE'),
  ('socket', '/usr/lib64/python2.7/socket.py', 'PYMODULE'),
  ('ssl', '/usr/lib64/python2.7/ssl.py', 'PYMODULE'),
  ('calendar', '/usr/lib64/python2.7/calendar.py', 'PYMODULE'),
  ('contextlib', '/usr/lib64/python2.7/contextlib.py', 'PYMODULE'),
  ('pkg_resources._vendor',
   '/home/mindslab/.local/lib/python2.7/site-packages/pkg_resources/_vendor/__init__.py',
   'PYMODULE'),
  ('pkg_resources._vendor.packaging.__about__',
   '/home/mindslab/.local/lib/python2.7/site-packages/pkg_resources/_vendor/packaging/__about__.py',
   'PYMODULE'),
  ('pkg_resources._vendor.packaging._compat',
   '/home/mindslab/.local/lib/python2.7/site-packages/pkg_resources/_vendor/packaging/_compat.py',
   'PYMODULE'),
  ('pkg_resources._vendor.packaging.specifiers',
   '/home/mindslab/.local/lib/python2.7/site-packages/pkg_resources/_vendor/packaging/specifiers.py',
   'PYMODULE'),
  ('pkg_resources._vendor.packaging.requirements',
   '/home/mindslab/.local/lib/python2.7/site-packages/pkg_resources/_vendor/packaging/requirements.py',
   'PYMODULE'),
  ('pkg_resources._vendor.appdirs',
   '/home/mindslab/.local/lib/python2.7/site-packages/pkg_resources/_vendor/appdirs.py',
   'PYMODULE'),
  ('pkg_resources._vendor.packaging',
   '/home/mindslab/.local/lib/python2.7/site-packages/pkg_resources/_vendor/packaging/__init__.py',
   'PYMODULE'),
  ('pkg_resources._vendor.six',
   '/home/mindslab/.local/lib/python2.7/site-packages/pkg_resources/_vendor/six.py',
   'PYMODULE'),
  ('pkg_resources._vendor.packaging._structures',
   '/home/mindslab/.local/lib/python2.7/site-packages/pkg_resources/_vendor/packaging/_structures.py',
   'PYMODULE'),
  ('pkg_resources._vendor.packaging.utils',
   '/home/mindslab/.local/lib/python2.7/site-packages/pkg_resources/_vendor/packaging/utils.py',
   'PYMODULE'),
  ('sysconfig', '/usr/lib64/python2.7/sysconfig.py', 'PYMODULE'),
  ('_osx_support', '/usr/lib64/python2.7/_osx_support.py', 'PYMODULE'),
  ('distutils.log', '/usr/lib64/python2.7/distutils/log.py', 'PYMODULE'),
  ('distutils', '/usr/lib64/python2.7/distutils/__init__.py', 'PYMODULE'),
  ('distutils.archive_util',
   '/usr/lib64/python2.7/distutils/archive_util.py',
   'PYMODULE'),
  ('tarfile', '/usr/lib64/python2.7/tarfile.py', 'PYMODULE'),
  ('gzip', '/usr/lib64/python2.7/gzip.py', 'PYMODULE'),
  ('distutils.dir_util',
   '/usr/lib64/python2.7/distutils/dir_util.py',
   'PYMODULE'),
  ('distutils.util', '/usr/lib64/python2.7/distutils/util.py', 'PYMODULE'),
  ('py_compile', '/usr/lib64/python2.7/py_compile.py', 'PYMODULE'),
  ('distutils.dep_util',
   '/usr/lib64/python2.7/distutils/dep_util.py',
   'PYMODULE'),
  ('distutils.file_util',
   '/usr/lib64/python2.7/distutils/file_util.py',
   'PYMODULE'),
  ('distutils.spawn', '/usr/lib64/python2.7/distutils/spawn.py', 'PYMODULE'),
  ('distutils.errors',
   '/usr/lib64/python2.7/distutils/errors.py',
   'PYMODULE'),
  ('distutils.ccompiler',
   '/usr/lib64/python2.7/distutils/ccompiler.py',
   'PYMODULE'),
  ('distutils.fancy_getopt',
   '/usr/lib64/python2.7/distutils/fancy_getopt.py',
   'PYMODULE'),
  ('distutils.debug', '/usr/lib64/python2.7/distutils/debug.py', 'PYMODULE'),
  ('distutils.sysconfig',
   '/usr/lib64/python2.7/distutils/sysconfig.py',
   'PYMODULE'),
  ('distutils.text_file',
   '/usr/lib64/python2.7/distutils/text_file.py',
   'PYMODULE'),
  ('_sysconfigdata', '/usr/lib64/python2.7/_sysconfigdata.py', 'PYMODULE'),
  ('pkg_resources.py31compat',
   '/home/mindslab/.local/lib/python2.7/site-packages/pkg_resources/py31compat.py',
   'PYMODULE'),
  ('pkg_resources.extern',
   '/home/mindslab/.local/lib/python2.7/site-packages/pkg_resources/extern/__init__.py',
   'PYMODULE'),
  ('ntpath', '/usr/lib64/python2.7/ntpath.py', 'PYMODULE'),
  ('email.parser', '/usr/lib64/python2.7/email/parser.py', 'PYMODULE'),
  ('email', '/usr/lib64/python2.7/email/__init__.py', 'PYMODULE'),
  ('email.mime', '/usr/lib64/python2.7/email/mime/__init__.py', 'PYMODULE'),
  ('email.errors', '/usr/lib64/python2.7/email/errors.py', 'PYMODULE'),
  ('email.message', '/usr/lib64/python2.7/email/message.py', 'PYMODULE'),
  ('email.iterators', '/usr/lib64/python2.7/email/iterators.py', 'PYMODULE'),
  ('email.generator', '/usr/lib64/python2.7/email/generator.py', 'PYMODULE'),
  ('email.header', '/usr/lib64/python2.7/email/header.py', 'PYMODULE'),
  ('email.base64mime',
   '/usr/lib64/python2.7/email/base64mime.py',
   'PYMODULE'),
  ('email.quoprimime',
   '/usr/lib64/python2.7/email/quoprimime.py',
   'PYMODULE'),
  ('email.utils', '/usr/lib64/python2.7/email/utils.py', 'PYMODULE'),
  ('email.encoders', '/usr/lib64/python2.7/email/encoders.py', 'PYMODULE'),
  ('email._parseaddr',
   '/usr/lib64/python2.7/email/_parseaddr.py',
   'PYMODULE'),
  ('urllib', '/usr/lib64/python2.7/urllib.py', 'PYMODULE'),
  ('getpass', '/usr/lib64/python2.7/getpass.py', 'PYMODULE'),
  ('ftplib', '/usr/lib64/python2.7/ftplib.py', 'PYMODULE'),
  ('mimetools', '/usr/lib64/python2.7/mimetools.py', 'PYMODULE'),
  ('rfc822', '/usr/lib64/python2.7/rfc822.py', 'PYMODULE'),
  ('mimetypes', '/usr/lib64/python2.7/mimetypes.py', 'PYMODULE'),
  ('httplib', '/usr/lib64/python2.7/httplib.py', 'PYMODULE'),
  ('nturl2path', '/usr/lib64/python2.7/nturl2path.py', 'PYMODULE'),
  ('urlparse', '/usr/lib64/python2.7/urlparse.py', 'PYMODULE'),
  ('email.charset', '/usr/lib64/python2.7/email/charset.py', 'PYMODULE'),
  ('uu', '/usr/lib64/python2.7/uu.py', 'PYMODULE'),
  ('email.feedparser',
   '/usr/lib64/python2.7/email/feedparser.py',
   'PYMODULE'),
  ('plistlib', '/usr/lib64/python2.7/plistlib.py', 'PYMODULE'),
  ('xml.parsers.expat',
   '/usr/lib64/python2.7/xml/parsers/expat.py',
   'PYMODULE'),
  ('xml.parsers', '/usr/lib64/python2.7/xml/parsers/__init__.py', 'PYMODULE'),
  ('xml', '/usr/lib64/python2.7/xml/__init__.py', 'PYMODULE'),
  ('xml.sax.expatreader',
   '/usr/lib64/python2.7/xml/sax/expatreader.py',
   'PYMODULE'),
  ('xml.sax.saxutils',
   '/usr/lib64/python2.7/xml/sax/saxutils.py',
   'PYMODULE'),
  ('xml.sax', '/usr/lib64/python2.7/xml/sax/__init__.py', 'PYMODULE'),
  ('xml.sax.handler', '/usr/lib64/python2.7/xml/sax/handler.py', 'PYMODULE'),
  ('xml.sax._exceptions',
   '/usr/lib64/python2.7/xml/sax/_exceptions.py',
   'PYMODULE'),
  ('xml.sax.xmlreader',
   '/usr/lib64/python2.7/xml/sax/xmlreader.py',
   'PYMODULE'),
  ('platform', '/usr/lib64/python2.7/platform.py', 'PYMODULE'),
  ('pkgutil', '/usr/lib64/python2.7/pkgutil.py', 'PYMODULE'),
  ('zipfile', '/usr/lib64/python2.7/zipfile.py', 'PYMODULE'),
  ('codecs', '/usr/lib64/python2.7/codecs.py', 'PYMODULE'),
  ('yaml',
   '/home/mindslab/.local/lib/python2.7/site-packages/yaml/__init__.py',
   'PYMODULE'),
  ('yaml.cyaml',
   '/home/mindslab/.local/lib/python2.7/site-packages/yaml/cyaml.py',
   'PYMODULE'),
  ('yaml.resolver',
   '/home/mindslab/.local/lib/python2.7/site-packages/yaml/resolver.py',
   'PYMODULE'),
  ('yaml.representer',
   '/home/mindslab/.local/lib/python2.7/site-packages/yaml/representer.py',
   'PYMODULE'),
  ('yaml.serializer',
   '/home/mindslab/.local/lib/python2.7/site-packages/yaml/serializer.py',
   'PYMODULE'),
  ('yaml.constructor',
   '/home/mindslab/.local/lib/python2.7/site-packages/yaml/constructor.py',
   'PYMODULE'),
  ('yaml.dumper',
   '/home/mindslab/.local/lib/python2.7/site-packages/yaml/dumper.py',
   'PYMODULE'),
  ('yaml.emitter',
   '/home/mindslab/.local/lib/python2.7/site-packages/yaml/emitter.py',
   'PYMODULE'),
  ('yaml.loader',
   '/home/mindslab/.local/lib/python2.7/site-packages/yaml/loader.py',
   'PYMODULE'),
  ('yaml.composer',
   '/home/mindslab/.local/lib/python2.7/site-packages/yaml/composer.py',
   'PYMODULE'),
  ('yaml.parser',
   '/home/mindslab/.local/lib/python2.7/site-packages/yaml/parser.py',
   'PYMODULE'),
  ('yaml.scanner',
   '/home/mindslab/.local/lib/python2.7/site-packages/yaml/scanner.py',
   'PYMODULE'),
  ('yaml.reader',
   '/home/mindslab/.local/lib/python2.7/site-packages/yaml/reader.py',
   'PYMODULE'),
  ('yaml.nodes',
   '/home/mindslab/.local/lib/python2.7/site-packages/yaml/nodes.py',
   'PYMODULE'),
  ('yaml.events',
   '/home/mindslab/.local/lib/python2.7/site-packages/yaml/events.py',
   'PYMODULE'),
  ('yaml.tokens',
   '/home/mindslab/.local/lib/python2.7/site-packages/yaml/tokens.py',
   'PYMODULE'),
  ('yaml.error',
   '/home/mindslab/.local/lib/python2.7/site-packages/yaml/error.py',
   'PYMODULE'),
  ('Crypto.Cipher.AES',
   '/home/mindslab/.local/lib/python2.7/site-packages/Crypto/Cipher/AES.py',
   'PYMODULE'),
  ('Crypto.Cipher.blockalgo',
   '/home/mindslab/.local/lib/python2.7/site-packages/Crypto/Cipher/blockalgo.py',
   'PYMODULE'),
  ('Crypto.Util.py3compat',
   '/home/mindslab/.local/lib/python2.7/site-packages/Crypto/Util/py3compat.py',
   'PYMODULE'),
  ('Crypto.Util',
   '/home/mindslab/.local/lib/python2.7/site-packages/Crypto/Util/__init__.py',
   'PYMODULE'),
  ('Crypto.Util.Counter',
   '/home/mindslab/.local/lib/python2.7/site-packages/Crypto/Util/Counter.py',
   'PYMODULE'),
  ('Crypto.Util.py21compat',
   '/home/mindslab/.local/lib/python2.7/site-packages/Crypto/Util/py21compat.py',
   'PYMODULE'),
  ('Crypto.Cipher',
   '/home/mindslab/.local/lib/python2.7/site-packages/Crypto/Cipher/__init__.py',
   'PYMODULE'),
  ('Crypto.Random',
   '/home/mindslab/.local/lib/python2.7/site-packages/Crypto/Random/__init__.py',
   'PYMODULE'),
  ('Crypto.Random._UserFriendlyRNG',
   '/home/mindslab/.local/lib/python2.7/site-packages/Crypto/Random/_UserFriendlyRNG.py',
   'PYMODULE'),
  ('Crypto.Random.Fortuna.FortunaAccumulator',
   '/home/mindslab/.local/lib/python2.7/site-packages/Crypto/Random/Fortuna/FortunaAccumulator.py',
   'PYMODULE'),
  ('Crypto.Random.Fortuna.FortunaGenerator',
   '/home/mindslab/.local/lib/python2.7/site-packages/Crypto/Random/Fortuna/FortunaGenerator.py',
   'PYMODULE'),
  ('Crypto.Util.number',
   '/home/mindslab/.local/lib/python2.7/site-packages/Crypto/Util/number.py',
   'PYMODULE'),
  ('Crypto.Random.random',
   '/home/mindslab/.local/lib/python2.7/site-packages/Crypto/Random/random.py',
   'PYMODULE'),
  ('Crypto.Util._number_new',
   '/home/mindslab/.local/lib/python2.7/site-packages/Crypto/Util/_number_new.py',
   'PYMODULE'),
  ('Crypto.PublicKey',
   '/home/mindslab/.local/lib/python2.7/site-packages/Crypto/PublicKey/__init__.py',
   'PYMODULE'),
  ('Crypto.Random.Fortuna.SHAd256',
   '/home/mindslab/.local/lib/python2.7/site-packages/Crypto/Random/Fortuna/SHAd256.py',
   'PYMODULE'),
  ('Crypto.Hash.SHA256',
   '/home/mindslab/.local/lib/python2.7/site-packages/Crypto/Hash/SHA256.py',
   'PYMODULE'),
  ('Crypto.Hash.hashalgo',
   '/home/mindslab/.local/lib/python2.7/site-packages/Crypto/Hash/hashalgo.py',
   'PYMODULE'),
  ('Crypto.Hash',
   '/home/mindslab/.local/lib/python2.7/site-packages/Crypto/Hash/__init__.py',
   'PYMODULE'),
  ('Crypto.pct_warnings',
   '/home/mindslab/.local/lib/python2.7/site-packages/Crypto/pct_warnings.py',
   'PYMODULE'),
  ('Crypto.Random.Fortuna',
   '/home/mindslab/.local/lib/python2.7/site-packages/Crypto/Random/Fortuna/__init__.py',
   'PYMODULE'),
  ('Crypto.Random.OSRNG',
   '/home/mindslab/.local/lib/python2.7/site-packages/Crypto/Random/OSRNG/__init__.py',
   'PYMODULE'),
  ('Crypto.Random.OSRNG.fallback',
   '/home/mindslab/.local/lib/python2.7/site-packages/Crypto/Random/OSRNG/fallback.py',
   'PYMODULE'),
  ('Crypto.Random.OSRNG.rng_base',
   '/home/mindslab/.local/lib/python2.7/site-packages/Crypto/Random/OSRNG/rng_base.py',
   'PYMODULE'),
  ('Crypto.Random.OSRNG.nt',
   '/home/mindslab/.local/lib/python2.7/site-packages/Crypto/Random/OSRNG/nt.py',
   'PYMODULE'),
  ('Crypto.Random.OSRNG.posix',
   '/home/mindslab/.local/lib/python2.7/site-packages/Crypto/Random/OSRNG/posix.py',
   'PYMODULE'),
  ('Crypto',
   '/home/mindslab/.local/lib/python2.7/site-packages/Crypto/__init__.py',
   'PYMODULE'),
  ('hashlib', '/usr/lib64/python2.7/hashlib.py', 'PYMODULE'),
  ('base64', '/usr/lib64/python2.7/base64.py', 'PYMODULE'),
  ('numpy',
   '/home/mindslab/.local/lib/python2.7/site-packages/numpy/__init__.py',
   'PYMODULE'),
  ('numpy._pytesttester',
   '/home/mindslab/.local/lib/python2.7/site-packages/numpy/_pytesttester.py',
   'PYMODULE'),
  ('numpy.distutils.cpuinfo',
   '/home/mindslab/.local/lib/python2.7/site-packages/numpy/distutils/cpuinfo.py',
   'PYMODULE'),
  ('numpy.distutils.compat',
   '/home/mindslab/.local/lib/python2.7/site-packages/numpy/distutils/compat.py',
   'PYMODULE'),
  ('commands', '/usr/lib64/python2.7/commands.py', 'PYMODULE'),
  ('numpy.distutils',
   '/home/mindslab/.local/lib/python2.7/site-packages/numpy/distutils/__init__.py',
   'PYMODULE'),
  ('numpy.distutils.fcompiler',
   '/home/mindslab/.local/lib/python2.7/site-packages/numpy/distutils/fcompiler/__init__.py',
   'PYMODULE'),
  ('numpy.distutils.command.config_compiler',
   '/home/mindslab/.local/lib/python2.7/site-packages/numpy/distutils/command/config_compiler.py',
   'PYMODULE'),
  ('numpy.distutils.command',
   '/home/mindslab/.local/lib/python2.7/site-packages/numpy/distutils/command/__init__.py',
   'PYMODULE'),
  ('numpy.distutils.command.egg_info',
   '/home/mindslab/.local/lib/python2.7/site-packages/numpy/distutils/command/egg_info.py',
   'PYMODULE'),
  ('setuptools.command.egg_info',
   '/home/mindslab/.local/lib/python2.7/site-packages/setuptools/command/egg_info.py',
   'PYMODULE'),
  ('setuptools.glob',
   '/home/mindslab/.local/lib/python2.7/site-packages/setuptools/glob.py',
   'PYMODULE'),
  ('setuptools.unicode_utils',
   '/home/mindslab/.local/lib/python2.7/site-packages/setuptools/unicode_utils.py',
   'PYMODULE'),
  ('setuptools.command.bdist_egg',
   '/home/mindslab/.local/lib/python2.7/site-packages/setuptools/command/bdist_egg.py',
   'PYMODULE'),
  ('setuptools.extension',
   '/home/mindslab/.local/lib/python2.7/site-packages/setuptools/extension.py',
   'PYMODULE'),
  ('setuptools.monkey',
   '/home/mindslab/.local/lib/python2.7/site-packages/setuptools/monkey.py',
   'PYMODULE'),
  ('importlib', '/usr/lib64/python2.7/importlib/__init__.py', 'PYMODULE'),
  ('distutils.extension',
   '/usr/lib64/python2.7/distutils/extension.py',
   'PYMODULE'),
  ('setuptools.command',
   '/home/mindslab/.local/lib/python2.7/site-packages/setuptools/command/__init__.py',
   'PYMODULE'),
  ('setuptools.command.install_scripts',
   '/home/mindslab/.local/lib/python2.7/site-packages/setuptools/command/install_scripts.py',
   'PYMODULE'),
  ('setuptools.command.easy_install',
   '/home/mindslab/.local/lib/python2.7/site-packages/setuptools/command/easy_install.py',
   'PYMODULE'),
  ('setuptools.dist',
   '/home/mindslab/.local/lib/python2.7/site-packages/setuptools/dist.py',
   'PYMODULE'),
  ('setuptools.installer',
   '/home/mindslab/.local/lib/python2.7/site-packages/setuptools/installer.py',
   'PYMODULE'),
  ('setuptools.py31compat',
   '/home/mindslab/.local/lib/python2.7/site-packages/setuptools/py31compat.py',
   'PYMODULE'),
  ('setuptools.config',
   '/home/mindslab/.local/lib/python2.7/site-packages/setuptools/config.py',
   'PYMODULE'),
  ('setuptools.windows_support',
   '/home/mindslab/.local/lib/python2.7/site-packages/setuptools/windows_support.py',
   'PYMODULE'),
  ('setuptools.depends',
   '/home/mindslab/.local/lib/python2.7/site-packages/setuptools/depends.py',
   'PYMODULE'),
  ('setuptools.py33compat',
   '/home/mindslab/.local/lib/python2.7/site-packages/setuptools/py33compat.py',
   'PYMODULE'),
  ('HTMLParser', '/usr/lib64/python2.7/HTMLParser.py', 'PYMODULE'),
  ('htmlentitydefs', '/usr/lib64/python2.7/htmlentitydefs.py', 'PYMODULE'),
  ('markupbase', '/usr/lib64/python2.7/markupbase.py', 'PYMODULE'),
  ('distutils.version',
   '/usr/lib64/python2.7/distutils/version.py',
   'PYMODULE'),
  ('distutils.cmd', '/usr/lib64/python2.7/distutils/cmd.py', 'PYMODULE'),
  ('numbers', '/usr/lib64/python2.7/numbers.py', 'PYMODULE'),
  ('setuptools.wheel',
   '/home/mindslab/.local/lib/python2.7/site-packages/setuptools/wheel.py',
   'PYMODULE'),
  ('setuptools.package_index',
   '/home/mindslab/.local/lib/python2.7/site-packages/setuptools/package_index.py',
   'PYMODULE'),
  ('setuptools.ssl_support',
   '/home/mindslab/.local/lib/python2.7/site-packages/setuptools/ssl_support.py',
   'PYMODULE'),
  ('setuptools.archive_util',
   '/home/mindslab/.local/lib/python2.7/site-packages/setuptools/archive_util.py',
   'PYMODULE'),
  ('setuptools.py27compat',
   '/home/mindslab/.local/lib/python2.7/site-packages/setuptools/py27compat.py',
   'PYMODULE'),
  ('setuptools._imp',
   '/home/mindslab/.local/lib/python2.7/site-packages/setuptools/_imp.py',
   'PYMODULE'),
  ('setuptools.py34compat',
   '/home/mindslab/.local/lib/python2.7/site-packages/setuptools/py34compat.py',
   'PYMODULE'),
  ('setuptools.sandbox',
   '/home/mindslab/.local/lib/python2.7/site-packages/setuptools/sandbox.py',
   'PYMODULE'),
  ('site',
   '/home/mindslab/.local/lib/python2.7/site-packages/PyInstaller/fake-modules/site.py',
   'PYMODULE'),
  ('distutils.command.build_scripts',
   '/usr/lib64/python2.7/distutils/command/build_scripts.py',
   'PYMODULE'),
  ('distutils.command',
   '/usr/lib64/python2.7/distutils/command/__init__.py',
   'PYMODULE'),
  ('distutils.command.install',
   '/usr/lib64/python2.7/distutils/command/install.py',
   'PYMODULE'),
  ('distutils.command.install_scripts',
   '/usr/lib64/python2.7/distutils/command/install_scripts.py',
   'PYMODULE'),
  ('distutils.command.bdist',
   '/usr/lib64/python2.7/distutils/command/bdist.py',
   'PYMODULE'),
  ('setuptools.command.setopt',
   '/home/mindslab/.local/lib/python2.7/site-packages/setuptools/command/setopt.py',
   'PYMODULE'),
  ('setuptools.command.sdist',
   '/home/mindslab/.local/lib/python2.7/site-packages/setuptools/command/sdist.py',
   'PYMODULE'),
  ('setuptools.command.py36compat',
   '/home/mindslab/.local/lib/python2.7/site-packages/setuptools/command/py36compat.py',
   'PYMODULE'),
  ('distutils.command.sdist',
   '/usr/lib64/python2.7/distutils/command/sdist.py',
   'PYMODULE'),
  ('setuptools',
   '/home/mindslab/.local/lib/python2.7/site-packages/setuptools/__init__.py',
   'PYMODULE'),
  ('setuptools._vendor.pyparsing',
   '/home/mindslab/.local/lib/python2.7/site-packages/setuptools/_vendor/pyparsing.py',
   'PYMODULE'),
  ('setuptools._vendor.packaging.requirements',
   '/home/mindslab/.local/lib/python2.7/site-packages/setuptools/_vendor/packaging/requirements.py',
   'PYMODULE'),
  ('setuptools._vendor',
   '/home/mindslab/.local/lib/python2.7/site-packages/setuptools/_vendor/__init__.py',
   'PYMODULE'),
  ('setuptools._vendor.six',
   '/home/mindslab/.local/lib/python2.7/site-packages/setuptools/_vendor/six.py',
   'PYMODULE'),
  ('setuptools._vendor.ordered_set',
   '/home/mindslab/.local/lib/python2.7/site-packages/setuptools/_vendor/ordered_set.py',
   'PYMODULE'),
  ('setuptools._vendor.packaging._compat',
   '/home/mindslab/.local/lib/python2.7/site-packages/setuptools/_vendor/packaging/_compat.py',
   'PYMODULE'),
  ('setuptools._vendor.packaging.version',
   '/home/mindslab/.local/lib/python2.7/site-packages/setuptools/_vendor/packaging/version.py',
   'PYMODULE'),
  ('setuptools._vendor.packaging.utils',
   '/home/mindslab/.local/lib/python2.7/site-packages/setuptools/_vendor/packaging/utils.py',
   'PYMODULE'),
  ('setuptools._vendor.packaging.specifiers',
   '/home/mindslab/.local/lib/python2.7/site-packages/setuptools/_vendor/packaging/specifiers.py',
   'PYMODULE'),
  ('setuptools._vendor.packaging.tags',
   '/home/mindslab/.local/lib/python2.7/site-packages/setuptools/_vendor/packaging/tags.py',
   'PYMODULE'),
  ('setuptools._vendor.packaging.__about__',
   '/home/mindslab/.local/lib/python2.7/site-packages/setuptools/_vendor/packaging/__about__.py',
   'PYMODULE'),
  ('setuptools._vendor.packaging.markers',
   '/home/mindslab/.local/lib/python2.7/site-packages/setuptools/_vendor/packaging/markers.py',
   'PYMODULE'),
  ('setuptools._vendor.packaging._structures',
   '/home/mindslab/.local/lib/python2.7/site-packages/setuptools/_vendor/packaging/_structures.py',
   'PYMODULE'),
  ('setuptools._vendor.packaging',
   '/home/mindslab/.local/lib/python2.7/site-packages/setuptools/_vendor/packaging/__init__.py',
   'PYMODULE'),
  ('setuptools.msvc',
   '/home/mindslab/.local/lib/python2.7/site-packages/setuptools/msvc.py',
   'PYMODULE'),
  ('distutils.msvc9compiler',
   '/usr/lib64/python2.7/distutils/msvc9compiler.py',
   'PYMODULE'),
  ('json', '/usr/lib64/python2.7/json/__init__.py', 'PYMODULE'),
  ('json.encoder', '/usr/lib64/python2.7/json/encoder.py', 'PYMODULE'),
  ('json.decoder', '/usr/lib64/python2.7/json/decoder.py', 'PYMODULE'),
  ('json.scanner', '/usr/lib64/python2.7/json/scanner.py', 'PYMODULE'),
  ('distutils.command.build_ext',
   '/usr/lib64/python2.7/distutils/command/build_ext.py',
   'PYMODULE'),
  ('distutils.msvccompiler',
   '/usr/lib64/python2.7/distutils/msvccompiler.py',
   'PYMODULE'),
  ('setuptools.namespaces',
   '/home/mindslab/.local/lib/python2.7/site-packages/setuptools/namespaces.py',
   'PYMODULE'),
  ('setuptools.version',
   '/home/mindslab/.local/lib/python2.7/site-packages/setuptools/version.py',
   'PYMODULE'),
  ('setuptools._deprecation_warning',
   '/home/mindslab/.local/lib/python2.7/site-packages/setuptools/_deprecation_warning.py',
   'PYMODULE'),
  ('setuptools.extern',
   '/home/mindslab/.local/lib/python2.7/site-packages/setuptools/extern/__init__.py',
   'PYMODULE'),
  ('distutils.filelist',
   '/usr/lib64/python2.7/distutils/filelist.py',
   'PYMODULE'),
  ('numpy.distutils.command.develop',
   '/home/mindslab/.local/lib/python2.7/site-packages/numpy/distutils/command/develop.py',
   'PYMODULE'),
  ('setuptools.command.develop',
   '/home/mindslab/.local/lib/python2.7/site-packages/setuptools/command/develop.py',
   'PYMODULE'),
  ('numpy.distutils.command.install_clib',
   '/home/mindslab/.local/lib/python2.7/site-packages/numpy/distutils/command/install_clib.py',
   'PYMODULE'),
  ('numpy.distutils.command.bdist_rpm',
   '/home/mindslab/.local/lib/python2.7/site-packages/numpy/distutils/command/bdist_rpm.py',
   'PYMODULE'),
  ('distutils.command.bdist_rpm',
   '/usr/lib64/python2.7/distutils/command/bdist_rpm.py',
   'PYMODULE'),
  ('setuptools.command.bdist_rpm',
   '/home/mindslab/.local/lib/python2.7/site-packages/setuptools/command/bdist_rpm.py',
   'PYMODULE'),
  ('numpy.distutils.command.install',
   '/home/mindslab/.local/lib/python2.7/site-packages/numpy/distutils/command/install.py',
   'PYMODULE'),
  ('setuptools.command.install',
   '/home/mindslab/.local/lib/python2.7/site-packages/setuptools/command/install.py',
   'PYMODULE'),
  ('numpy.distutils.command.install_headers',
   '/home/mindslab/.local/lib/python2.7/site-packages/numpy/distutils/command/install_headers.py',
   'PYMODULE'),
  ('distutils.command.install_headers',
   '/usr/lib64/python2.7/distutils/command/install_headers.py',
   'PYMODULE'),
  ('numpy.distutils.command.install_data',
   '/home/mindslab/.local/lib/python2.7/site-packages/numpy/distutils/command/install_data.py',
   'PYMODULE'),
  ('distutils.command.install_data',
   '/usr/lib64/python2.7/distutils/command/install_data.py',
   'PYMODULE'),
  ('numpy.distutils.command.sdist',
   '/home/mindslab/.local/lib/python2.7/site-packages/numpy/distutils/command/sdist.py',
   'PYMODULE'),
  ('numpy.distutils.command.build_scripts',
   '/home/mindslab/.local/lib/python2.7/site-packages/numpy/distutils/command/build_scripts.py',
   'PYMODULE'),
  ('numpy.distutils.command.build_clib',
   '/home/mindslab/.local/lib/python2.7/site-packages/numpy/distutils/command/build_clib.py',
   'PYMODULE'),
  ('distutils.command.build_clib',
   '/usr/lib64/python2.7/distutils/command/build_clib.py',
   'PYMODULE'),
  ('numpy.distutils.command.build_ext',
   '/home/mindslab/.local/lib/python2.7/site-packages/numpy/distutils/command/build_ext.py',
   'PYMODULE'),
  ('numpy.distutils.system_info',
   '/home/mindslab/.local/lib/python2.7/site-packages/numpy/distutils/system_info.py',
   'PYMODULE'),
  ('numpy.f2py',
   '/home/mindslab/.local/lib/python2.7/site-packages/numpy/f2py/__init__.py',
   'PYMODULE'),
  ('numpy.f2py.diagnose',
   '/home/mindslab/.local/lib/python2.7/site-packages/numpy/f2py/diagnose.py',
   'PYMODULE'),
  ('numpy.f2py.f2py_testing',
   '/home/mindslab/.local/lib/python2.7/site-packages/numpy/f2py/f2py_testing.py',
   'PYMODULE'),
  ('numpy.f2py.f2py2e',
   '/home/mindslab/.local/lib/python2.7/site-packages/numpy/f2py/f2py2e.py',
   'PYMODULE'),
  ('numpy.distutils.command.build_src',
   '/home/mindslab/.local/lib/python2.7/site-packages/numpy/distutils/command/build_src.py',
   'PYMODULE'),
  ('numpy.distutils.conv_template',
   '/home/mindslab/.local/lib/python2.7/site-packages/numpy/distutils/conv_template.py',
   'PYMODULE'),
  ('numpy.distutils.from_template',
   '/home/mindslab/.local/lib/python2.7/site-packages/numpy/distutils/from_template.py',
   'PYMODULE'),
  ('numpy.f2py.auxfuncs',
   '/home/mindslab/.local/lib/python2.7/site-packages/numpy/f2py/auxfuncs.py',
   'PYMODULE'),
  ('numpy.f2py.f90mod_rules',
   '/home/mindslab/.local/lib/python2.7/site-packages/numpy/f2py/f90mod_rules.py',
   'PYMODULE'),
  ('numpy.f2py.rules',
   '/home/mindslab/.local/lib/python2.7/site-packages/numpy/f2py/rules.py',
   'PYMODULE'),
  ('numpy.f2py.use_rules',
   '/home/mindslab/.local/lib/python2.7/site-packages/numpy/f2py/use_rules.py',
   'PYMODULE'),
  ('numpy.f2py.common_rules',
   '/home/mindslab/.local/lib/python2.7/site-packages/numpy/f2py/common_rules.py',
   'PYMODULE'),
  ('numpy.f2py.func2subr',
   '/home/mindslab/.local/lib/python2.7/site-packages/numpy/f2py/func2subr.py',
   'PYMODULE'),
  ('numpy.f2py.crackfortran',
   '/home/mindslab/.local/lib/python2.7/site-packages/numpy/f2py/crackfortran.py',
   'PYMODULE'),
  ('fileinput', '/usr/lib64/python2.7/fileinput.py', 'PYMODULE'),
  ('numpy.f2py.cb_rules',
   '/home/mindslab/.local/lib/python2.7/site-packages/numpy/f2py/cb_rules.py',
   'PYMODULE'),
  ('numpy.f2py.capi_maps',
   '/home/mindslab/.local/lib/python2.7/site-packages/numpy/f2py/capi_maps.py',
   'PYMODULE'),
  ('numpy.f2py.cfuncs',
   '/home/mindslab/.local/lib/python2.7/site-packages/numpy/f2py/cfuncs.py',
   'PYMODULE'),
  ('numpy.f2py.__version__',
   '/home/mindslab/.local/lib/python2.7/site-packages/numpy/f2py/__version__.py',
   'PYMODULE'),
  ('configparser',
   '/usr/lib/python2.7/site-packages/configparser.py',
   'PYMODULE'),
  ('numpy.distutils.command.build_py',
   '/home/mindslab/.local/lib/python2.7/site-packages/numpy/distutils/command/build_py.py',
   'PYMODULE'),
  ('distutils.command.build_py',
   '/usr/lib64/python2.7/distutils/command/build_py.py',
   'PYMODULE'),
  ('numpy.distutils.command.build',
   '/home/mindslab/.local/lib/python2.7/site-packages/numpy/distutils/command/build.py',
   'PYMODULE'),
  ('distutils.command.build',
   '/usr/lib64/python2.7/distutils/command/build.py',
   'PYMODULE'),
  ('numpy.distutils.command.config',
   '/home/mindslab/.local/lib/python2.7/site-packages/numpy/distutils/command/config.py',
   'PYMODULE'),
  ('numpy.distutils.command.autodist',
   '/home/mindslab/.local/lib/python2.7/site-packages/numpy/distutils/command/autodist.py',
   'PYMODULE'),
  ('numpy.distutils.mingw32ccompiler',
   '/home/mindslab/.local/lib/python2.7/site-packages/numpy/distutils/mingw32ccompiler.py',
   'PYMODULE'),
  ('distutils.unixccompiler',
   '/usr/lib64/python2.7/distutils/unixccompiler.py',
   'PYMODULE'),
  ('distutils.cygwinccompiler',
   '/usr/lib64/python2.7/distutils/cygwinccompiler.py',
   'PYMODULE'),
  ('distutils.command.config',
   '/usr/lib64/python2.7/distutils/command/config.py',
   'PYMODULE'),
  ('distutils.core', '/usr/lib64/python2.7/distutils/core.py', 'PYMODULE'),
  ('distutils.config',
   '/usr/lib64/python2.7/distutils/config.py',
   'PYMODULE'),
  ('distutils.dist', '/usr/lib64/python2.7/distutils/dist.py', 'PYMODULE'),
  ('distutils.versionpredicate',
   '/usr/lib64/python2.7/distutils/versionpredicate.py',
   'PYMODULE'),
  ('numpy.distutils.core',
   '/home/mindslab/.local/lib/python2.7/site-packages/numpy/distutils/core.py',
   'PYMODULE'),
  ('numpy.distutils.numpy_distribution',
   '/home/mindslab/.local/lib/python2.7/site-packages/numpy/distutils/numpy_distribution.py',
   'PYMODULE'),
  ('numpy.distutils.extension',
   '/home/mindslab/.local/lib/python2.7/site-packages/numpy/distutils/extension.py',
   'PYMODULE'),
  ('numpy.distutils.fcompiler.environment',
   '/home/mindslab/.local/lib/python2.7/site-packages/numpy/distutils/fcompiler/environment.py',
   'PYMODULE'),
  ('numpy.distutils.exec_command',
   '/home/mindslab/.local/lib/python2.7/site-packages/numpy/distutils/exec_command.py',
   'PYMODULE'),
  ('numpy.distutils.misc_util',
   '/home/mindslab/.local/lib/python2.7/site-packages/numpy/distutils/misc_util.py',
   'PYMODULE'),
  ('curses', '/usr/lib64/python2.7/curses/__init__.py', 'PYMODULE'),
  ('curses.has_key', '/usr/lib64/python2.7/curses/has_key.py', 'PYMODULE'),
  ('curses.wrapper', '/usr/lib64/python2.7/curses/wrapper.py', 'PYMODULE'),
  ('dummy_threading', '/usr/lib64/python2.7/dummy_threading.py', 'PYMODULE'),
  ('numpy.distutils.__config__',
   '/home/mindslab/.local/lib/python2.7/site-packages/numpy/distutils/__config__.py',
   'PYMODULE'),
  ('numpy.distutils.npy_pkg_config',
   '/home/mindslab/.local/lib/python2.7/site-packages/numpy/distutils/npy_pkg_config.py',
   'PYMODULE'),
  ('numpy.distutils.info',
   '/home/mindslab/.local/lib/python2.7/site-packages/numpy/distutils/info.py',
   'PYMODULE'),
  ('numpy.distutils.unixccompiler',
   '/home/mindslab/.local/lib/python2.7/site-packages/numpy/distutils/unixccompiler.py',
   'PYMODULE'),
  ('numpy.distutils.ccompiler',
   '/home/mindslab/.local/lib/python2.7/site-packages/numpy/distutils/ccompiler.py',
   'PYMODULE'),
  ('multiprocessing.pool',
   '/usr/lib64/python2.7/multiprocessing/pool.py',
   'PYMODULE'),
  ('multiprocessing.dummy',
   '/usr/lib64/python2.7/multiprocessing/dummy/__init__.py',
   'PYMODULE'),
  ('multiprocessing.dummy.connection',
   '/usr/lib64/python2.7/multiprocessing/dummy/connection.py',
   'PYMODULE'),
  ('multiprocessing.queues',
   '/usr/lib64/python2.7/multiprocessing/queues.py',
   'PYMODULE'),
  ('multiprocessing.synchronize',
   '/usr/lib64/python2.7/multiprocessing/synchronize.py',
   'PYMODULE'),
  ('Queue', '/usr/lib64/python2.7/Queue.py', 'PYMODULE'),
  ('numpy.distutils._shell_utils',
   '/home/mindslab/.local/lib/python2.7/site-packages/numpy/distutils/_shell_utils.py',
   'PYMODULE'),
  ('pipes', '/usr/lib64/python2.7/pipes.py', 'PYMODULE'),
  ('numpy.distutils.lib2def',
   '/home/mindslab/.local/lib/python2.7/site-packages/numpy/distutils/lib2def.py',
   'PYMODULE'),
  ('numpy.distutils.log',
   '/home/mindslab/.local/lib/python2.7/site-packages/numpy/distutils/log.py',
   'PYMODULE'),
  ('numpy.distutils.__version__',
   '/home/mindslab/.local/lib/python2.7/site-packages/numpy/distutils/__version__.py',
   'PYMODULE'),
  ('numpy.testing',
   '/home/mindslab/.local/lib/python2.7/site-packages/numpy/testing/__init__.py',
   'PYMODULE'),
  ('numpy.testing._private.nosetester',
   '/home/mindslab/.local/lib/python2.7/site-packages/numpy/testing/_private/nosetester.py',
   'PYMODULE'),
  ('numpy.testing._private.noseclasses',
   '/home/mindslab/.local/lib/python2.7/site-packages/numpy/testing/_private/noseclasses.py',
   'PYMODULE'),
  ('numpy.testing._private.decorators',
   '/home/mindslab/.local/lib/python2.7/site-packages/numpy/testing/_private/decorators.py',
   'PYMODULE'),
  ('numpy.testing._private.parameterized',
   '/home/mindslab/.local/lib/python2.7/site-packages/numpy/testing/_private/parameterized.py',
   'PYMODULE'),
  ('numpy.testing._private',
   '/home/mindslab/.local/lib/python2.7/site-packages/numpy/testing/_private/__init__.py',
   'PYMODULE'),
  ('numpy.testing._private.utils',
   '/home/mindslab/.local/lib/python2.7/site-packages/numpy/testing/_private/utils.py',
   'PYMODULE'),
  ('numpy.core.fromnumeric',
   '/home/mindslab/.local/lib/python2.7/site-packages/numpy/core/fromnumeric.py',
   'PYMODULE'),
  ('numpy.core._methods',
   '/home/mindslab/.local/lib/python2.7/site-packages/numpy/core/_methods.py',
   'PYMODULE'),
  ('numpy.core.numeric',
   '/home/mindslab/.local/lib/python2.7/site-packages/numpy/core/numeric.py',
   'PYMODULE'),
  ('numpy.core.arrayprint',
   '/home/mindslab/.local/lib/python2.7/site-packages/numpy/core/arrayprint.py',
   'PYMODULE'),
  ('numpy.core._internal',
   '/home/mindslab/.local/lib/python2.7/site-packages/numpy/core/_internal.py',
   'PYMODULE'),
  ('numpy.core.umath',
   '/home/mindslab/.local/lib/python2.7/site-packages/numpy/core/umath.py',
   'PYMODULE'),
  ('numpy.core.overrides',
   '/home/mindslab/.local/lib/python2.7/site-packages/numpy/core/overrides.py',
   'PYMODULE'),
  ('numpy.compat._inspect',
   '/home/mindslab/.local/lib/python2.7/site-packages/numpy/compat/_inspect.py',
   'PYMODULE'),
  ('numpy.core.multiarray',
   '/home/mindslab/.local/lib/python2.7/site-packages/numpy/core/multiarray.py',
   'PYMODULE'),
  ('numpy.core.numerictypes',
   '/home/mindslab/.local/lib/python2.7/site-packages/numpy/core/numerictypes.py',
   'PYMODULE'),
  ('numpy.core._dtype',
   '/home/mindslab/.local/lib/python2.7/site-packages/numpy/core/_dtype.py',
   'PYMODULE'),
  ('numpy.core._type_aliases',
   '/home/mindslab/.local/lib/python2.7/site-packages/numpy/core/_type_aliases.py',
   'PYMODULE'),
  ('numpy.core._string_helpers',
   '/home/mindslab/.local/lib/python2.7/site-packages/numpy/core/_string_helpers.py',
   'PYMODULE'),
  ('numpy.lib.utils',
   '/home/mindslab/.local/lib/python2.7/site-packages/numpy/lib/utils.py',
   'PYMODULE'),
  ('ast', '/usr/lib64/python2.7/ast.py', 'PYMODULE'),
  ('pydoc', '/usr/lib64/python2.7/pydoc.py', 'PYMODULE'),
  ('webbrowser', '/usr/lib64/python2.7/webbrowser.py', 'PYMODULE'),
  ('BaseHTTPServer', '/usr/lib64/python2.7/BaseHTTPServer.py', 'PYMODULE'),
  ('SocketServer', '/usr/lib64/python2.7/SocketServer.py', 'PYMODULE'),
  ('formatter', '/usr/lib64/python2.7/formatter.py', 'PYMODULE'),
  ('pydoc_data.topics',
   '/usr/lib64/python2.7/pydoc_data/topics.py',
   'PYMODULE'),
  ('pydoc_data', '/usr/lib64/python2.7/pydoc_data/__init__.py', 'PYMODULE'),
  ('tty', '/usr/lib64/python2.7/tty.py', 'PYMODULE'),
  ('numpy.matrixlib',
   '/home/mindslab/.local/lib/python2.7/site-packages/numpy/matrixlib/__init__.py',
   'PYMODULE'),
  ('numpy.matrixlib.defmatrix',
   '/home/mindslab/.local/lib/python2.7/site-packages/numpy/matrixlib/defmatrix.py',
   'PYMODULE'),
  ('numpy.dual',
   '/home/mindslab/.local/lib/python2.7/site-packages/numpy/dual.py',
   'PYMODULE'),
  ('numpy.ma',
   '/home/mindslab/.local/lib/python2.7/site-packages/numpy/ma/__init__.py',
   'PYMODULE'),
  ('numpy.ma.extras',
   '/home/mindslab/.local/lib/python2.7/site-packages/numpy/ma/extras.py',
   'PYMODULE'),
  ('numpy.lib.index_tricks',
   '/home/mindslab/.local/lib/python2.7/site-packages/numpy/lib/index_tricks.py',
   'PYMODULE'),
  ('numpy.lib.stride_tricks',
   '/home/mindslab/.local/lib/python2.7/site-packages/numpy/lib/stride_tricks.py',
   'PYMODULE'),
  ('numpy.lib.function_base',
   '/home/mindslab/.local/lib/python2.7/site-packages/numpy/lib/function_base.py',
   'PYMODULE'),
  ('numpy.lib.histograms',
   '/home/mindslab/.local/lib/python2.7/site-packages/numpy/lib/histograms.py',
   'PYMODULE'),
  ('numpy.compat.py3k',
   '/home/mindslab/.local/lib/python2.7/site-packages/numpy/compat/py3k.py',
   'PYMODULE'),
  ('numpy.lib.twodim_base',
   '/home/mindslab/.local/lib/python2.7/site-packages/numpy/lib/twodim_base.py',
   'PYMODULE'),
  ('numpy.core.function_base',
   '/home/mindslab/.local/lib/python2.7/site-packages/numpy/core/function_base.py',
   'PYMODULE'),
  ('numpy.ma.core',
   '/home/mindslab/.local/lib/python2.7/site-packages/numpy/ma/core.py',
   'PYMODULE'),
  ('numpy.ctypeslib',
   '/home/mindslab/.local/lib/python2.7/site-packages/numpy/ctypeslib.py',
   'PYMODULE'),
  ('numpy.random',
   '/home/mindslab/.local/lib/python2.7/site-packages/numpy/random/__init__.py',
   'PYMODULE'),
  ('numpy.polynomial',
   '/home/mindslab/.local/lib/python2.7/site-packages/numpy/polynomial/__init__.py',
   'PYMODULE'),
  ('numpy.polynomial.laguerre',
   '/home/mindslab/.local/lib/python2.7/site-packages/numpy/polynomial/laguerre.py',
   'PYMODULE'),
  ('numpy.polynomial._polybase',
   '/home/mindslab/.local/lib/python2.7/site-packages/numpy/polynomial/_polybase.py',
   'PYMODULE'),
  ('numpy.polynomial.hermite_e',
   '/home/mindslab/.local/lib/python2.7/site-packages/numpy/polynomial/hermite_e.py',
   'PYMODULE'),
  ('numpy.polynomial.hermite',
   '/home/mindslab/.local/lib/python2.7/site-packages/numpy/polynomial/hermite.py',
   'PYMODULE'),
  ('numpy.polynomial.legendre',
   '/home/mindslab/.local/lib/python2.7/site-packages/numpy/polynomial/legendre.py',
   'PYMODULE'),
  ('numpy.polynomial.chebyshev',
   '/home/mindslab/.local/lib/python2.7/site-packages/numpy/polynomial/chebyshev.py',
   'PYMODULE'),
  ('numpy.polynomial.polynomial',
   '/home/mindslab/.local/lib/python2.7/site-packages/numpy/polynomial/polynomial.py',
   'PYMODULE'),
  ('numpy.polynomial.polyutils',
   '/home/mindslab/.local/lib/python2.7/site-packages/numpy/polynomial/polyutils.py',
   'PYMODULE'),
  ('numpy.fft',
   '/home/mindslab/.local/lib/python2.7/site-packages/numpy/fft/__init__.py',
   'PYMODULE'),
  ('numpy.fft.helper',
   '/home/mindslab/.local/lib/python2.7/site-packages/numpy/fft/helper.py',
   'PYMODULE'),
  ('numpy.fft.fftpack',
   '/home/mindslab/.local/lib/python2.7/site-packages/numpy/fft/fftpack.py',
   'PYMODULE'),
  ('numpy.fft.info',
   '/home/mindslab/.local/lib/python2.7/site-packages/numpy/fft/info.py',
   'PYMODULE'),
  ('numpy.linalg',
   '/home/mindslab/.local/lib/python2.7/site-packages/numpy/linalg/__init__.py',
   'PYMODULE'),
  ('numpy.linalg.linalg',
   '/home/mindslab/.local/lib/python2.7/site-packages/numpy/linalg/linalg.py',
   'PYMODULE'),
  ('numpy.linalg.info',
   '/home/mindslab/.local/lib/python2.7/site-packages/numpy/linalg/info.py',
   'PYMODULE'),
  ('numpy.lib',
   '/home/mindslab/.local/lib/python2.7/site-packages/numpy/lib/__init__.py',
   'PYMODULE'),
  ('numpy.lib._version',
   '/home/mindslab/.local/lib/python2.7/site-packages/numpy/lib/_version.py',
   'PYMODULE'),
  ('numpy.lib.arraypad',
   '/home/mindslab/.local/lib/python2.7/site-packages/numpy/lib/arraypad.py',
   'PYMODULE'),
  ('numpy.lib.arrayterator',
   '/home/mindslab/.local/lib/python2.7/site-packages/numpy/lib/arrayterator.py',
   'PYMODULE'),
  ('numpy.lib.financial',
   '/home/mindslab/.local/lib/python2.7/site-packages/numpy/lib/financial.py',
   'PYMODULE'),
  ('decimal', '/usr/lib64/python2.7/decimal.py', 'PYMODULE'),
  ('numpy.lib.npyio',
   '/home/mindslab/.local/lib/python2.7/site-packages/numpy/lib/npyio.py',
   'PYMODULE'),
  ('numpy.ma.mrecords',
   '/home/mindslab/.local/lib/python2.7/site-packages/numpy/ma/mrecords.py',
   'PYMODULE'),
  ('numpy.core.records',
   '/home/mindslab/.local/lib/python2.7/site-packages/numpy/core/records.py',
   'PYMODULE'),
  ('numpy.lib._iotools',
   '/home/mindslab/.local/lib/python2.7/site-packages/numpy/lib/_iotools.py',
   'PYMODULE'),
  ('numpy.lib._datasource',
   '/home/mindslab/.local/lib/python2.7/site-packages/numpy/lib/_datasource.py',
   'PYMODULE'),
  ('urllib2', '/usr/lib64/python2.7/urllib2.py', 'PYMODULE'),
  ('cookielib', '/usr/lib64/python2.7/cookielib.py', 'PYMODULE'),
  ('_MozillaCookieJar',
   '/usr/lib64/python2.7/_MozillaCookieJar.py',
   'PYMODULE'),
  ('_LWPCookieJar', '/usr/lib64/python2.7/_LWPCookieJar.py', 'PYMODULE'),
  ('bisect', '/usr/lib64/python2.7/bisect.py', 'PYMODULE'),
  ('numpy.lib.format',
   '/home/mindslab/.local/lib/python2.7/site-packages/numpy/lib/format.py',
   'PYMODULE'),
  ('numpy.lib.arraysetops',
   '/home/mindslab/.local/lib/python2.7/site-packages/numpy/lib/arraysetops.py',
   'PYMODULE'),
  ('numpy.lib.polynomial',
   '/home/mindslab/.local/lib/python2.7/site-packages/numpy/lib/polynomial.py',
   'PYMODULE'),
  ('numpy.lib.scimath',
   '/home/mindslab/.local/lib/python2.7/site-packages/numpy/lib/scimath.py',
   'PYMODULE'),
  ('numpy.lib.ufunclike',
   '/home/mindslab/.local/lib/python2.7/site-packages/numpy/lib/ufunclike.py',
   'PYMODULE'),
  ('numpy.lib.shape_base',
   '/home/mindslab/.local/lib/python2.7/site-packages/numpy/lib/shape_base.py',
   'PYMODULE'),
  ('numpy.core.shape_base',
   '/home/mindslab/.local/lib/python2.7/site-packages/numpy/core/shape_base.py',
   'PYMODULE'),
  ('numpy.lib.nanfunctions',
   '/home/mindslab/.local/lib/python2.7/site-packages/numpy/lib/nanfunctions.py',
   'PYMODULE'),
  ('numpy.lib.mixins',
   '/home/mindslab/.local/lib/python2.7/site-packages/numpy/lib/mixins.py',
   'PYMODULE'),
  ('numpy.lib.type_check',
   '/home/mindslab/.local/lib/python2.7/site-packages/numpy/lib/type_check.py',
   'PYMODULE'),
  ('numpy.core.getlimits',
   '/home/mindslab/.local/lib/python2.7/site-packages/numpy/core/getlimits.py',
   'PYMODULE'),
  ('numpy.core.machar',
   '/home/mindslab/.local/lib/python2.7/site-packages/numpy/core/machar.py',
   'PYMODULE'),
  ('numpy.lib.info',
   '/home/mindslab/.local/lib/python2.7/site-packages/numpy/lib/info.py',
   'PYMODULE'),
  ('numpy.compat',
   '/home/mindslab/.local/lib/python2.7/site-packages/numpy/compat/__init__.py',
   'PYMODULE'),
  ('numpy.core',
   '/home/mindslab/.local/lib/python2.7/site-packages/numpy/core/__init__.py',
   'PYMODULE'),
  ('numpy.core._dtype_ctypes',
   '/home/mindslab/.local/lib/python2.7/site-packages/numpy/core/_dtype_ctypes.py',
   'PYMODULE'),
  ('numpy.core._add_newdocs',
   '/home/mindslab/.local/lib/python2.7/site-packages/numpy/core/_add_newdocs.py',
   'PYMODULE'),
  ('numpy.core.einsumfunc',
   '/home/mindslab/.local/lib/python2.7/site-packages/numpy/core/einsumfunc.py',
   'PYMODULE'),
  ('numpy.core.memmap',
   '/home/mindslab/.local/lib/python2.7/site-packages/numpy/core/memmap.py',
   'PYMODULE'),
  ('numpy.core.defchararray',
   '/home/mindslab/.local/lib/python2.7/site-packages/numpy/core/defchararray.py',
   'PYMODULE'),
  ('numpy.core.info',
   '/home/mindslab/.local/lib/python2.7/site-packages/numpy/core/info.py',
   'PYMODULE'),
  ('numpy._distributor_init',
   '/home/mindslab/.local/lib/python2.7/site-packages/numpy/_distributor_init.py',
   'PYMODULE'),
  ('numpy.version',
   '/home/mindslab/.local/lib/python2.7/site-packages/numpy/version.py',
   'PYMODULE'),
  ('numpy.__config__',
   '/home/mindslab/.local/lib/python2.7/site-packages/numpy/__config__.py',
   'PYMODULE'),
  ('numpy._globals',
   '/home/mindslab/.local/lib/python2.7/site-packages/numpy/_globals.py',
   'PYMODULE'),
  ('samplerate',
   '/home/mindslab/.local/lib/python2.7/site-packages/samplerate/__init__.py',
   'PYMODULE'),
  ('samplerate.converters',
   '/home/mindslab/.local/lib/python2.7/site-packages/samplerate/converters.py',
   'PYMODULE'),
  ('enum',
   '/home/mindslab/.local/lib/python2.7/site-packages/enum/__init__.py',
   'PYMODULE'),
  ('samplerate.exceptions',
   '/home/mindslab/.local/lib/python2.7/site-packages/samplerate/exceptions.py',
   'PYMODULE'),
  ('samplerate.lowlevel',
   '/home/mindslab/.local/lib/python2.7/site-packages/samplerate/lowlevel.py',
   'PYMODULE'),
  ('samplerate._src',
   '/home/mindslab/.local/lib/python2.7/site-packages/samplerate/_src.py',
   'PYMODULE'),
  ('samplerate._version',
   '/home/mindslab/.local/lib/python2.7/site-packages/samplerate/_version.py',
   'PYMODULE'),
  ('glob', '/usr/lib64/python2.7/glob.py', 'PYMODULE'),
  ('argparse', '/usr/lib64/python2.7/argparse.py', 'PYMODULE'),
  ('sdn_util', '/srv/maum/aicc/src/sdn/sdn_util.py', 'PYMODULE'),
  ('sdn_tempo', '/srv/maum/aicc/src/sdn/sdn_tempo.py', 'PYMODULE'),
  ('ConfigParser', '/usr/lib64/python2.7/ConfigParser.py', 'PYMODULE'),
  ('sqlite3', '/usr/lib64/python2.7/sqlite3/__init__.py', 'PYMODULE'),
  ('sqlite3.dump', '/usr/lib64/python2.7/sqlite3/dump.py', 'PYMODULE'),
  ('sqlite3.dbapi2', '/usr/lib64/python2.7/sqlite3/dbapi2.py', 'PYMODULE'),
  ('maum.brain.tts.ng_tts_pb2_grpc',
   '/srv/maum/lib/python/maum/brain/tts/ng_tts_pb2_grpc.py',
   'PYMODULE'),
  ('maum.brain.tts.ng_tts_pb2',
   '/srv/maum/lib/python/maum/brain/tts/ng_tts_pb2.py',
   'PYMODULE'),
  ('maum.common.lang_pb2',
   '/srv/maum/lib/python/maum/common/lang_pb2.py',
   'PYMODULE'),
  ('maum.common', '/srv/maum/lib/python/maum/common/__init__.py', 'PYMODULE'),
  ('maum', '/srv/maum/lib/python/maum/__init__.py', 'PYMODULE'),
  ('google.protobuf.symbol_database',
   '/home/mindslab/.local/lib/python2.7/site-packages/google/protobuf/symbol_database.py',
   'PYMODULE'),
  ('google.protobuf.message_factory',
   '/home/mindslab/.local/lib/python2.7/site-packages/google/protobuf/message_factory.py',
   'PYMODULE'),
  ('google.protobuf.internal.python_message',
   '/home/mindslab/.local/lib/python2.7/site-packages/google/protobuf/internal/python_message.py',
   'PYMODULE'),
  ('google.protobuf.text_format',
   '/home/mindslab/.local/lib/python2.7/site-packages/google/protobuf/text_format.py',
   'PYMODULE'),
  ('google.protobuf.text_encoding',
   '/home/mindslab/.local/lib/python2.7/site-packages/google/protobuf/text_encoding.py',
   'PYMODULE'),
  ('google.protobuf.internal.wire_format',
   '/home/mindslab/.local/lib/python2.7/site-packages/google/protobuf/internal/wire_format.py',
   'PYMODULE'),
  ('google.protobuf.internal.well_known_types',
   '/home/mindslab/.local/lib/python2.7/site-packages/google/protobuf/internal/well_known_types.py',
   'PYMODULE'),
  ('google.protobuf.internal.type_checkers',
   '/home/mindslab/.local/lib/python2.7/site-packages/google/protobuf/internal/type_checkers.py',
   'PYMODULE'),
  ('google.protobuf.internal.message_listener',
   '/home/mindslab/.local/lib/python2.7/site-packages/google/protobuf/internal/message_listener.py',
   'PYMODULE'),
  ('google.protobuf.internal.extension_dict',
   '/home/mindslab/.local/lib/python2.7/site-packages/google/protobuf/internal/extension_dict.py',
   'PYMODULE'),
  ('google.protobuf.internal.encoder',
   '/home/mindslab/.local/lib/python2.7/site-packages/google/protobuf/internal/encoder.py',
   'PYMODULE'),
  ('google.protobuf.internal.decoder',
   '/home/mindslab/.local/lib/python2.7/site-packages/google/protobuf/internal/decoder.py',
   'PYMODULE'),
  ('google.protobuf.internal.containers',
   '/home/mindslab/.local/lib/python2.7/site-packages/google/protobuf/internal/containers.py',
   'PYMODULE'),
  ('six',
   '/home/mindslab/.local/lib/python2.7/site-packages/six.py',
   'PYMODULE'),
  ('google.protobuf.pyext.cpp_message',
   '/home/mindslab/.local/lib/python2.7/site-packages/google/protobuf/pyext/cpp_message.py',
   'PYMODULE'),
  ('google.protobuf.pyext',
   '/home/mindslab/.local/lib/python2.7/site-packages/google/protobuf/pyext/__init__.py',
   'PYMODULE'),
  ('google.protobuf.descriptor_pool',
   '/home/mindslab/.local/lib/python2.7/site-packages/google/protobuf/descriptor_pool.py',
   'PYMODULE'),
  ('google.protobuf.descriptor_pb2',
   '/home/mindslab/.local/lib/python2.7/site-packages/google/protobuf/descriptor_pb2.py',
   'PYMODULE'),
  ('google.protobuf.descriptor_database',
   '/home/mindslab/.local/lib/python2.7/site-packages/google/protobuf/descriptor_database.py',
   'PYMODULE'),
  ('google.protobuf.internal.api_implementation',
   '/home/mindslab/.local/lib/python2.7/site-packages/google/protobuf/internal/api_implementation.py',
   'PYMODULE'),
  ('google.protobuf.reflection',
   '/home/mindslab/.local/lib/python2.7/site-packages/google/protobuf/reflection.py',
   'PYMODULE'),
  ('google.protobuf.message',
   '/home/mindslab/.local/lib/python2.7/site-packages/google/protobuf/message.py',
   'PYMODULE'),
  ('google.protobuf.descriptor',
   '/home/mindslab/.local/lib/python2.7/site-packages/google/protobuf/descriptor.py',
   'PYMODULE'),
  ('google.protobuf',
   '/home/mindslab/.local/lib/python2.7/site-packages/google/protobuf/__init__.py',
   'PYMODULE'),
  ('google', '-', 'PYMODULE'),
  ('google.protobuf.internal.enum_type_wrapper',
   '/home/mindslab/.local/lib/python2.7/site-packages/google/protobuf/internal/enum_type_wrapper.py',
   'PYMODULE'),
  ('google.protobuf.internal',
   '/home/mindslab/.local/lib/python2.7/site-packages/google/protobuf/internal/__init__.py',
   'PYMODULE'),
  ('maum.brain.tts',
   '/srv/maum/lib/python/maum/brain/tts/__init__.py',
   'PYMODULE'),
  ('maum.brain', '/srv/maum/lib/python/maum/brain/__init__.py', 'PYMODULE'),
  ('string', '/usr/lib64/python2.7/string.py', 'PYMODULE'),
  ('shutil', '/usr/lib64/python2.7/shutil.py', 'PYMODULE'),
  ('subprocess', '/usr/lib64/python2.7/subprocess.py', 'PYMODULE'),
  ('grpc',
   '/home/mindslab/.local/lib/python2.7/site-packages/grpc/__init__.py',
   'PYMODULE'),
  ('grpc_tools',
   '/home/mindslab/.local/lib/python2.7/site-packages/grpc_tools/__init__.py',
   'PYMODULE'),
  ('grpc._server',
   '/home/mindslab/.local/lib/python2.7/site-packages/grpc/_server.py',
   'PYMODULE'),
  ('grpc._interceptor',
   '/home/mindslab/.local/lib/python2.7/site-packages/grpc/_interceptor.py',
   'PYMODULE'),
  ('grpc.experimental',
   '/home/mindslab/.local/lib/python2.7/site-packages/grpc/experimental/__init__.py',
   'PYMODULE'),
  ('grpc._channel',
   '/home/mindslab/.local/lib/python2.7/site-packages/grpc/_channel.py',
   'PYMODULE'),
  ('grpc._auth',
   '/home/mindslab/.local/lib/python2.7/site-packages/grpc/_auth.py',
   'PYMODULE'),
  ('grpc._plugin_wrapping',
   '/home/mindslab/.local/lib/python2.7/site-packages/grpc/_plugin_wrapping.py',
   'PYMODULE'),
  ('grpc._utilities',
   '/home/mindslab/.local/lib/python2.7/site-packages/grpc/_utilities.py',
   'PYMODULE'),
  ('grpc._common',
   '/home/mindslab/.local/lib/python2.7/site-packages/grpc/_common.py',
   'PYMODULE'),
  ('grpc._grpcio_metadata',
   '/home/mindslab/.local/lib/python2.7/site-packages/grpc/_grpcio_metadata.py',
   'PYMODULE'),
  ('grpc._compression',
   '/home/mindslab/.local/lib/python2.7/site-packages/grpc/_compression.py',
   'PYMODULE'),
  ('grpc._cython',
   '/home/mindslab/.local/lib/python2.7/site-packages/grpc/_cython/__init__.py',
   'PYMODULE'),
  ('multiprocessing',
   '/usr/lib64/python2.7/multiprocessing/__init__.py',
   'PYMODULE'),
  ('multiprocessing.sharedctypes',
   '/usr/lib64/python2.7/multiprocessing/sharedctypes.py',
   'PYMODULE'),
  ('multiprocessing.heap',
   '/usr/lib64/python2.7/multiprocessing/heap.py',
   'PYMODULE'),
  ('multiprocessing.reduction',
   '/usr/lib64/python2.7/multiprocessing/reduction.py',
   'PYMODULE'),
  ('multiprocessing.managers',
   '/usr/lib64/python2.7/multiprocessing/managers.py',
   'PYMODULE'),
  ('multiprocessing.connection',
   '/usr/lib64/python2.7/multiprocessing/connection.py',
   'PYMODULE'),
  ('xmlrpclib', '/usr/lib64/python2.7/xmlrpclib.py', 'PYMODULE'),
  ('xmllib', '/usr/lib64/python2.7/xmllib.py', 'PYMODULE'),
  ('hmac', '/usr/lib64/python2.7/hmac.py', 'PYMODULE'),
  ('threading', '/usr/lib64/python2.7/threading.py', 'PYMODULE'),
  ('_threading_local',
   '/usr/lib64/python2.7/_threading_local.py',
   'PYMODULE'),
  ('struct', '/usr/lib64/python2.7/struct.py', 'PYMODULE'),
  ('os', '/usr/lib64/python2.7/os.py', 'PYMODULE'),
  ('os2emxpath', '/usr/lib64/python2.7/os2emxpath.py', 'PYMODULE'),
  ('traceback', '/usr/lib64/python2.7/traceback.py', 'PYMODULE'),
  ('logging', '/usr/lib64/python2.7/logging/__init__.py', 'PYMODULE'),
  ('_strptime', '/usr/lib64/python2.7/_strptime.py', 'PYMODULE'),
  ('concurrent.futures',
   '/home/mindslab/.local/lib/python2.7/site-packages/concurrent/futures/__init__.py',
   'PYMODULE'),
  ('concurrent.futures.process',
   '/home/mindslab/.local/lib/python2.7/site-packages/concurrent/futures/process.py',
   'PYMODULE'),
  ('concurrent.futures.thread',
   '/home/mindslab/.local/lib/python2.7/site-packages/concurrent/futures/thread.py',
   'PYMODULE'),
  ('concurrent.futures._base',
   '/home/mindslab/.local/lib/python2.7/site-packages/concurrent/futures/_base.py',
   'PYMODULE'),
  ('concurrent',
   '/home/mindslab/.local/lib/python2.7/site-packages/concurrent/__init__.py',
   'PYMODULE')],
 [('libpython2.7.so.1.0', '/lib64/libpython2.7.so.1.0', 'BINARY'),
  ('_multiarray_umath.so',
   '/home/mindslab/.local/lib/python2.7/site-packages/numpy/core/_multiarray_umath.so',
   'BINARY'),
  ('_multiarray_tests.so',
   '/home/mindslab/.local/lib/python2.7/site-packages/numpy/core/_multiarray_tests.so',
   'BINARY'),
  ('_operand_flag_tests.so',
   '/home/mindslab/.local/lib/python2.7/site-packages/numpy/core/_operand_flag_tests.so',
   'BINARY'),
  ('_rational_tests.so',
   '/home/mindslab/.local/lib/python2.7/site-packages/numpy/core/_rational_tests.so',
   'BINARY'),
  ('_struct_ufunc_tests.so',
   '/home/mindslab/.local/lib/python2.7/site-packages/numpy/core/_struct_ufunc_tests.so',
   'BINARY'),
  ('_dummy.so',
   '/home/mindslab/.local/lib/python2.7/site-packages/numpy/core/_dummy.so',
   'BINARY'),
  ('_umath_tests.so',
   '/home/mindslab/.local/lib/python2.7/site-packages/numpy/core/_umath_tests.so',
   'BINARY'),
  ('_multiprocessing',
   '/usr/lib64/python2.7/lib-dynload/_multiprocessing.so',
   'EXTENSION'),
  ('_random',
   '/usr/lib64/python2.7/lib-dynload/_randommodule.so',
   'EXTENSION'),
  ('binascii', '/usr/lib64/python2.7/lib-dynload/binascii.so', 'EXTENSION'),
  ('math', '/usr/lib64/python2.7/lib-dynload/math.so', 'EXTENSION'),
  ('_functools',
   '/usr/lib64/python2.7/lib-dynload/_functoolsmodule.so',
   'EXTENSION'),
  ('cPickle', '/usr/lib64/python2.7/lib-dynload/cPickle.so', 'EXTENSION'),
  ('itertools',
   '/usr/lib64/python2.7/lib-dynload/itertoolsmodule.so',
   'EXTENSION'),
  ('_heapq', '/usr/lib64/python2.7/lib-dynload/_heapq.so', 'EXTENSION'),
  ('operator', '/usr/lib64/python2.7/lib-dynload/operator.so', 'EXTENSION'),
  ('_collections',
   '/usr/lib64/python2.7/lib-dynload/_collectionsmodule.so',
   'EXTENSION'),
  ('fcntl', '/usr/lib64/python2.7/lib-dynload/fcntlmodule.so', 'EXTENSION'),
  ('_io', '/usr/lib64/python2.7/lib-dynload/_io.so', 'EXTENSION'),
  ('readline', '/usr/lib64/python2.7/lib-dynload/readline.so', 'EXTENSION'),
  ('_locale',
   '/usr/lib64/python2.7/lib-dynload/_localemodule.so',
   'EXTENSION'),
  ('unicodedata',
   '/usr/lib64/python2.7/lib-dynload/unicodedata.so',
   'EXTENSION'),
  ('_multibytecodec',
   '/usr/lib64/python2.7/lib-dynload/_multibytecodecmodule.so',
   'EXTENSION'),
  ('_codecs_cn',
   '/usr/lib64/python2.7/lib-dynload/_codecs_cn.so',
   'EXTENSION'),
  ('_codecs_jp',
   '/usr/lib64/python2.7/lib-dynload/_codecs_jp.so',
   'EXTENSION'),
  ('_codecs_hk',
   '/usr/lib64/python2.7/lib-dynload/_codecs_hk.so',
   'EXTENSION'),
  ('_codecs_tw',
   '/usr/lib64/python2.7/lib-dynload/_codecs_tw.so',
   'EXTENSION'),
  ('_codecs_iso2022',
   '/usr/lib64/python2.7/lib-dynload/_codecs_iso2022.so',
   'EXTENSION'),
  ('bz2', '/usr/lib64/python2.7/lib-dynload/bz2.so', 'EXTENSION'),
  ('zlib', '/usr/lib64/python2.7/lib-dynload/zlibmodule.so', 'EXTENSION'),
  ('_codecs_kr',
   '/usr/lib64/python2.7/lib-dynload/_codecs_kr.so',
   'EXTENSION'),
  ('cStringIO', '/usr/lib64/python2.7/lib-dynload/cStringIO.so', 'EXTENSION'),
  ('array', '/usr/lib64/python2.7/lib-dynload/arraymodule.so', 'EXTENSION'),
  ('_ctypes', '/usr/lib64/python2.7/lib-dynload/_ctypes.so', 'EXTENSION'),
  ('_ssl', '/usr/lib64/python2.7/lib-dynload/_ssl.so', 'EXTENSION'),
  ('_socket',
   '/usr/lib64/python2.7/lib-dynload/_socketmodule.so',
   'EXTENSION'),
  ('grp', '/usr/lib64/python2.7/lib-dynload/grpmodule.so', 'EXTENSION'),
  ('termios', '/usr/lib64/python2.7/lib-dynload/termios.so', 'EXTENSION'),
  ('pyexpat', '/usr/lib64/python2.7/lib-dynload/pyexpat.so', 'EXTENSION'),
  ('_yaml', '/usr/lib64/python2.7/site-packages/_yaml.so', 'EXTENSION'),
  ('audioop', '/usr/lib64/python2.7/lib-dynload/audioop.so', 'EXTENSION'),
  ('Crypto.Cipher._AES',
   '/home/mindslab/.local/lib/python2.7/site-packages/Crypto/Cipher/_AES.so',
   'EXTENSION'),
  ('Crypto.Util._counter',
   '/home/mindslab/.local/lib/python2.7/site-packages/Crypto/Util/_counter.so',
   'EXTENSION'),
  ('Crypto.Hash._SHA256',
   '/home/mindslab/.local/lib/python2.7/site-packages/Crypto/Hash/_SHA256.so',
   'EXTENSION'),
  ('_hashlib', '/usr/lib64/python2.7/lib-dynload/_hashlib.so', 'EXTENSION'),
  ('syslog', '/usr/lib64/python2.7/lib-dynload/syslog.so', 'EXTENSION'),
  ('_json', '/usr/lib64/python2.7/lib-dynload/_json.so', 'EXTENSION'),
  ('_curses', '/usr/lib64/python2.7/lib-dynload/_curses.so', 'EXTENSION'),
  ('numpy.core._multiarray_tests',
   '/home/mindslab/.local/lib/python2.7/site-packages/numpy/core/_multiarray_tests.so',
   'EXTENSION'),
  ('numpy.core._multiarray_umath',
   '/home/mindslab/.local/lib/python2.7/site-packages/numpy/core/_multiarray_umath.so',
   'EXTENSION'),
  ('select', '/usr/lib64/python2.7/lib-dynload/selectmodule.so', 'EXTENSION'),
  ('numpy.random.mtrand',
   '/home/mindslab/.local/lib/python2.7/site-packages/numpy/random/mtrand.so',
   'EXTENSION'),
  ('numpy.fft.fftpack_lite',
   '/home/mindslab/.local/lib/python2.7/site-packages/numpy/fft/fftpack_lite.so',
   'EXTENSION'),
  ('numpy.linalg._umath_linalg',
   '/home/mindslab/.local/lib/python2.7/site-packages/numpy/linalg/_umath_linalg.so',
   'EXTENSION'),
  ('numpy.linalg.lapack_lite',
   '/home/mindslab/.local/lib/python2.7/site-packages/numpy/linalg/lapack_lite.so',
   'EXTENSION'),
  ('future_builtins',
   '/usr/lib64/python2.7/lib-dynload/future_builtins.so',
   'EXTENSION'),
  ('_bisect',
   '/usr/lib64/python2.7/lib-dynload/_bisectmodule.so',
   'EXTENSION'),
  ('lzma', '/usr/lib64/python2.7/site-packages/lzma.so', 'EXTENSION'),
  ('mmap', '/usr/lib64/python2.7/lib-dynload/mmapmodule.so', 'EXTENSION'),
  ('_cffi_backend',
   '/home/mindslab/.local/lib/python2.7/site-packages/_cffi_backend.so',
   'EXTENSION'),
  ('soundtouch',
   '/usr/lib64/python2.7/site-packages/soundtouchmodule.so',
   'EXTENSION'),
  ('_sqlite3', '/usr/lib64/python2.7/lib-dynload/_sqlite3.so', 'EXTENSION'),
  ('google.protobuf.pyext._message',
   '/home/mindslab/.local/lib/python2.7/site-packages/google/protobuf/pyext/_message.so',
   'EXTENSION'),
  ('google.protobuf.internal._api_implementation',
   '/home/mindslab/.local/lib/python2.7/site-packages/google/protobuf/internal/_api_implementation.so',
   'EXTENSION'),
  ('strop', '/usr/lib64/python2.7/lib-dynload/stropmodule.so', 'EXTENSION'),
  ('grpc._cython.cygrpc',
   '/home/mindslab/.local/lib/python2.7/site-packages/grpc/_cython/cygrpc.so',
   'EXTENSION'),
  ('_struct', '/usr/lib64/python2.7/lib-dynload/_struct.so', 'EXTENSION'),
  ('resource', '/usr/lib64/python2.7/lib-dynload/resource.so', 'EXTENSION'),
  ('datetime', '/usr/lib64/python2.7/lib-dynload/datetime.so', 'EXTENSION'),
  ('time', '/usr/lib64/python2.7/lib-dynload/timemodule.so', 'EXTENSION'),
  ('libopenblasp-r0-34a18dc3.3.7.so',
   '/home/mindslab/.local/lib/python2.7/site-packages/numpy/core/../.libs/libopenblasp-r0-34a18dc3.3.7.so',
   'BINARY'),
  ('libgfortran-ed201abd.so.3.0.0',
   '/home/mindslab/.local/lib/python2.7/site-packages/numpy/core/../.libs/libgfortran-ed201abd.so.3.0.0',
   'BINARY'),
  ('libtinfo.so.5', '/lib64/libtinfo.so.5', 'BINARY'),
  ('libreadline.so.6', '/lib64/libreadline.so.6', 'BINARY'),
  ('libbz2.so.1', '/lib64/libbz2.so.1', 'BINARY'),
  ('libz.so.1', '/lib64/libz.so.1', 'BINARY'),
  ('libffi.so.6', '/lib64/libffi.so.6', 'BINARY'),
  ('libk5crypto.so.3', '/lib64/libk5crypto.so.3', 'BINARY'),
  ('libcom_err.so.2', '/lib64/libcom_err.so.2', 'BINARY'),
  ('libgssapi_krb5.so.2', '/lib64/libgssapi_krb5.so.2', 'BINARY'),
  ('libcrypto.so.10', '/lib64/libcrypto.so.10', 'BINARY'),
  ('libkrb5support.so.0', '/lib64/libkrb5support.so.0', 'BINARY'),
  ('libpcre.so.1', '/lib64/libpcre.so.1', 'BINARY'),
  ('libkeyutils.so.1', '/lib64/libkeyutils.so.1', 'BINARY'),
  ('libkrb5.so.3', '/lib64/libkrb5.so.3', 'BINARY'),
  ('libselinux.so.1', '/lib64/libselinux.so.1', 'BINARY'),
  ('libssl.so.10', '/lib64/libssl.so.10', 'BINARY'),
  ('libexpat.so.1', '/usr/lib64/libexpat.so.1', 'BINARY'),
  ('libyaml-0.so.2', '/lib64/libyaml-0.so.2', 'BINARY'),
  ('libncursesw.so.5', '/lib64/libncursesw.so.5', 'BINARY'),
  ('liblzma.so.5', '/lib64/liblzma.so.5', 'BINARY'),
  ('libffi-806b1a9d.so.6.0.4',
   '/home/mindslab/.local/lib/python2.7/site-packages/.libs_cffi_backend/libffi-806b1a9d.so.6.0.4',
   'BINARY'),
  ('libgcc_s.so.1', '/lib64/libgcc_s.so.1', 'BINARY'),
  ('libstdc++.so.6', '/lib64/libstdc++.so.6', 'BINARY'),
  ('libsqlite3.so.0', '/lib64/libsqlite3.so.0', 'BINARY')],
 [],
 [],
 [('lib64/python2.7/config/Makefile',
   '/usr/lib64/python2.7/config/Makefile',
   'DATA'),
  ('include/python2.7/pyconfig-64.h',
   '/usr/include/python2.7/pyconfig-64.h',
   'DATA')],
 [])
