('/srv/maum/aicc/src/sdn/build/sdn/PKG-00.pkg',
 {'BINARY': 1,
  'DATA': 1,
  'EXECUTABLE': 1,
  'EXTENSION': 1,
  'PYMODULE': 1,
  'PYSOURCE': 1,
  'PYZ': 0},
 [('PYZ-00.pyz', '/srv/maum/aicc/src/sdn/build/sdn/PYZ-00.pyz', 'PYZ'),
  ('_struct', '/usr/lib64/python2.7/lib-dynload/_struct.so', 'EXTENSION'),
  ('zlib', '/usr/lib64/python2.7/lib-dynload/zlibmodule.so', 'EXTENSION'),
  ('struct', '/usr/lib64/python2.7/struct.pyc', 'PYMODULE'),
  ('pyimod01_os_path',
   '/home/mindslab/.local/lib/python2.7/site-packages/PyInstaller/loader/pyimod01_os_path.pyc',
   'PYMODULE'),
  ('pyimod02_archive',
   '/home/mindslab/.local/lib/python2.7/site-packages/PyInstaller/loader/pyimod02_archive.pyc',
   'PYMODULE'),
  ('pyimod03_importers',
   '/home/mindslab/.local/lib/python2.7/site-packages/PyInstaller/loader/pyimod03_importers.pyc',
   'PYMODULE'),
  ('pyiboot01_bootstrap',
   '/home/mindslab/.local/lib/python2.7/site-packages/PyInstaller/loader/pyiboot01_bootstrap.py',
   'PYSOURCE'),
  ('pyi_rth_pkgres',
   '/home/mindslab/.local/lib/python2.7/site-packages/PyInstaller/loader/rthooks/pyi_rth_pkgres.py',
   'PYSOURCE'),
  ('pyi_rth_multiprocessing',
   '/home/mindslab/.local/lib/python2.7/site-packages/PyInstaller/loader/rthooks/pyi_rth_multiprocessing.py',
   'PYSOURCE'),
  ('sdn', '/srv/maum/aicc/src/sdn/sdn.py', 'PYSOURCE'),
  ('libpython2.7.so.1.0', '/lib64/libpython2.7.so.1.0', 'BINARY'),
  ('_multiarray_umath.so',
   '/home/mindslab/.local/lib/python2.7/site-packages/numpy/core/_multiarray_umath.so',
   'BINARY'),
  ('_multiarray_tests.so',
   '/home/mindslab/.local/lib/python2.7/site-packages/numpy/core/_multiarray_tests.so',
   'BINARY'),
  ('_operand_flag_tests.so',
   '/home/mindslab/.local/lib/python2.7/site-packages/numpy/core/_operand_flag_tests.so',
   'BINARY'),
  ('_rational_tests.so',
   '/home/mindslab/.local/lib/python2.7/site-packages/numpy/core/_rational_tests.so',
   'BINARY'),
  ('_struct_ufunc_tests.so',
   '/home/mindslab/.local/lib/python2.7/site-packages/numpy/core/_struct_ufunc_tests.so',
   'BINARY'),
  ('_dummy.so',
   '/home/mindslab/.local/lib/python2.7/site-packages/numpy/core/_dummy.so',
   'BINARY'),
  ('_umath_tests.so',
   '/home/mindslab/.local/lib/python2.7/site-packages/numpy/core/_umath_tests.so',
   'BINARY'),
  ('_multiprocessing',
   '/usr/lib64/python2.7/lib-dynload/_multiprocessing.so',
   'EXTENSION'),
  ('_random',
   '/usr/lib64/python2.7/lib-dynload/_randommodule.so',
   'EXTENSION'),
  ('binascii', '/usr/lib64/python2.7/lib-dynload/binascii.so', 'EXTENSION'),
  ('math', '/usr/lib64/python2.7/lib-dynload/math.so', 'EXTENSION'),
  ('_functools',
   '/usr/lib64/python2.7/lib-dynload/_functoolsmodule.so',
   'EXTENSION'),
  ('cPickle', '/usr/lib64/python2.7/lib-dynload/cPickle.so', 'EXTENSION'),
  ('itertools',
   '/usr/lib64/python2.7/lib-dynload/itertoolsmodule.so',
   'EXTENSION'),
  ('_heapq', '/usr/lib64/python2.7/lib-dynload/_heapq.so', 'EXTENSION'),
  ('operator', '/usr/lib64/python2.7/lib-dynload/operator.so', 'EXTENSION'),
  ('_collections',
   '/usr/lib64/python2.7/lib-dynload/_collectionsmodule.so',
   'EXTENSION'),
  ('fcntl', '/usr/lib64/python2.7/lib-dynload/fcntlmodule.so', 'EXTENSION'),
  ('_io', '/usr/lib64/python2.7/lib-dynload/_io.so', 'EXTENSION'),
  ('readline', '/usr/lib64/python2.7/lib-dynload/readline.so', 'EXTENSION'),
  ('_locale',
   '/usr/lib64/python2.7/lib-dynload/_localemodule.so',
   'EXTENSION'),
  ('unicodedata',
   '/usr/lib64/python2.7/lib-dynload/unicodedata.so',
   'EXTENSION'),
  ('_multibytecodec',
   '/usr/lib64/python2.7/lib-dynload/_multibytecodecmodule.so',
   'EXTENSION'),
  ('_codecs_cn',
   '/usr/lib64/python2.7/lib-dynload/_codecs_cn.so',
   'EXTENSION'),
  ('_codecs_jp',
   '/usr/lib64/python2.7/lib-dynload/_codecs_jp.so',
   'EXTENSION'),
  ('_codecs_hk',
   '/usr/lib64/python2.7/lib-dynload/_codecs_hk.so',
   'EXTENSION'),
  ('_codecs_tw',
   '/usr/lib64/python2.7/lib-dynload/_codecs_tw.so',
   'EXTENSION'),
  ('_codecs_iso2022',
   '/usr/lib64/python2.7/lib-dynload/_codecs_iso2022.so',
   'EXTENSION'),
  ('bz2', '/usr/lib64/python2.7/lib-dynload/bz2.so', 'EXTENSION'),
  ('_codecs_kr',
   '/usr/lib64/python2.7/lib-dynload/_codecs_kr.so',
   'EXTENSION'),
  ('cStringIO', '/usr/lib64/python2.7/lib-dynload/cStringIO.so', 'EXTENSION'),
  ('array', '/usr/lib64/python2.7/lib-dynload/arraymodule.so', 'EXTENSION'),
  ('_ctypes', '/usr/lib64/python2.7/lib-dynload/_ctypes.so', 'EXTENSION'),
  ('_ssl', '/usr/lib64/python2.7/lib-dynload/_ssl.so', 'EXTENSION'),
  ('_socket',
   '/usr/lib64/python2.7/lib-dynload/_socketmodule.so',
   'EXTENSION'),
  ('grp', '/usr/lib64/python2.7/lib-dynload/grpmodule.so', 'EXTENSION'),
  ('termios', '/usr/lib64/python2.7/lib-dynload/termios.so', 'EXTENSION'),
  ('pyexpat', '/usr/lib64/python2.7/lib-dynload/pyexpat.so', 'EXTENSION'),
  ('_yaml', '/usr/lib64/python2.7/site-packages/_yaml.so', 'EXTENSION'),
  ('audioop', '/usr/lib64/python2.7/lib-dynload/audioop.so', 'EXTENSION'),
  ('Crypto.Cipher._AES',
   '/home/mindslab/.local/lib/python2.7/site-packages/Crypto/Cipher/_AES.so',
   'EXTENSION'),
  ('Crypto.Util._counter',
   '/home/mindslab/.local/lib/python2.7/site-packages/Crypto/Util/_counter.so',
   'EXTENSION'),
  ('Crypto.Hash._SHA256',
   '/home/mindslab/.local/lib/python2.7/site-packages/Crypto/Hash/_SHA256.so',
   'EXTENSION'),
  ('_hashlib', '/usr/lib64/python2.7/lib-dynload/_hashlib.so', 'EXTENSION'),
  ('syslog', '/usr/lib64/python2.7/lib-dynload/syslog.so', 'EXTENSION'),
  ('_json', '/usr/lib64/python2.7/lib-dynload/_json.so', 'EXTENSION'),
  ('_curses', '/usr/lib64/python2.7/lib-dynload/_curses.so', 'EXTENSION'),
  ('numpy.core._multiarray_tests',
   '/home/mindslab/.local/lib/python2.7/site-packages/numpy/core/_multiarray_tests.so',
   'EXTENSION'),
  ('numpy.core._multiarray_umath',
   '/home/mindslab/.local/lib/python2.7/site-packages/numpy/core/_multiarray_umath.so',
   'EXTENSION'),
  ('select', '/usr/lib64/python2.7/lib-dynload/selectmodule.so', 'EXTENSION'),
  ('numpy.random.mtrand',
   '/home/mindslab/.local/lib/python2.7/site-packages/numpy/random/mtrand.so',
   'EXTENSION'),
  ('numpy.fft.fftpack_lite',
   '/home/mindslab/.local/lib/python2.7/site-packages/numpy/fft/fftpack_lite.so',
   'EXTENSION'),
  ('numpy.linalg._umath_linalg',
   '/home/mindslab/.local/lib/python2.7/site-packages/numpy/linalg/_umath_linalg.so',
   'EXTENSION'),
  ('numpy.linalg.lapack_lite',
   '/home/mindslab/.local/lib/python2.7/site-packages/numpy/linalg/lapack_lite.so',
   'EXTENSION'),
  ('future_builtins',
   '/usr/lib64/python2.7/lib-dynload/future_builtins.so',
   'EXTENSION'),
  ('_bisect',
   '/usr/lib64/python2.7/lib-dynload/_bisectmodule.so',
   'EXTENSION'),
  ('lzma', '/usr/lib64/python2.7/site-packages/lzma.so', 'EXTENSION'),
  ('mmap', '/usr/lib64/python2.7/lib-dynload/mmapmodule.so', 'EXTENSION'),
  ('_cffi_backend',
   '/home/mindslab/.local/lib/python2.7/site-packages/_cffi_backend.so',
   'EXTENSION'),
  ('soundtouch',
   '/usr/lib64/python2.7/site-packages/soundtouchmodule.so',
   'EXTENSION'),
  ('_sqlite3', '/usr/lib64/python2.7/lib-dynload/_sqlite3.so', 'EXTENSION'),
  ('google.protobuf.pyext._message',
   '/home/mindslab/.local/lib/python2.7/site-packages/google/protobuf/pyext/_message.so',
   'EXTENSION'),
  ('google.protobuf.internal._api_implementation',
   '/home/mindslab/.local/lib/python2.7/site-packages/google/protobuf/internal/_api_implementation.so',
   'EXTENSION'),
  ('strop', '/usr/lib64/python2.7/lib-dynload/stropmodule.so', 'EXTENSION'),
  ('grpc._cython.cygrpc',
   '/home/mindslab/.local/lib/python2.7/site-packages/grpc/_cython/cygrpc.so',
   'EXTENSION'),
  ('resource', '/usr/lib64/python2.7/lib-dynload/resource.so', 'EXTENSION'),
  ('datetime', '/usr/lib64/python2.7/lib-dynload/datetime.so', 'EXTENSION'),
  ('time', '/usr/lib64/python2.7/lib-dynload/timemodule.so', 'EXTENSION'),
  ('libopenblasp-r0-34a18dc3.3.7.so',
   '/home/mindslab/.local/lib/python2.7/site-packages/numpy/core/../.libs/libopenblasp-r0-34a18dc3.3.7.so',
   'BINARY'),
  ('libgfortran-ed201abd.so.3.0.0',
   '/home/mindslab/.local/lib/python2.7/site-packages/numpy/core/../.libs/libgfortran-ed201abd.so.3.0.0',
   'BINARY'),
  ('libtinfo.so.5', '/lib64/libtinfo.so.5', 'BINARY'),
  ('libreadline.so.6', '/lib64/libreadline.so.6', 'BINARY'),
  ('libbz2.so.1', '/lib64/libbz2.so.1', 'BINARY'),
  ('libz.so.1', '/lib64/libz.so.1', 'BINARY'),
  ('libffi.so.6', '/lib64/libffi.so.6', 'BINARY'),
  ('libk5crypto.so.3', '/lib64/libk5crypto.so.3', 'BINARY'),
  ('libcom_err.so.2', '/lib64/libcom_err.so.2', 'BINARY'),
  ('libgssapi_krb5.so.2', '/lib64/libgssapi_krb5.so.2', 'BINARY'),
  ('libcrypto.so.10', '/lib64/libcrypto.so.10', 'BINARY'),
  ('libkrb5support.so.0', '/lib64/libkrb5support.so.0', 'BINARY'),
  ('libpcre.so.1', '/lib64/libpcre.so.1', 'BINARY'),
  ('libkeyutils.so.1', '/lib64/libkeyutils.so.1', 'BINARY'),
  ('libkrb5.so.3', '/lib64/libkrb5.so.3', 'BINARY'),
  ('libselinux.so.1', '/lib64/libselinux.so.1', 'BINARY'),
  ('libssl.so.10', '/lib64/libssl.so.10', 'BINARY'),
  ('libexpat.so.1', '/usr/lib64/libexpat.so.1', 'BINARY'),
  ('libyaml-0.so.2', '/lib64/libyaml-0.so.2', 'BINARY'),
  ('libncursesw.so.5', '/lib64/libncursesw.so.5', 'BINARY'),
  ('liblzma.so.5', '/lib64/liblzma.so.5', 'BINARY'),
  ('libffi-806b1a9d.so.6.0.4',
   '/home/mindslab/.local/lib/python2.7/site-packages/.libs_cffi_backend/libffi-806b1a9d.so.6.0.4',
   'BINARY'),
  ('libgcc_s.so.1', '/lib64/libgcc_s.so.1', 'BINARY'),
  ('libstdc++.so.6', '/lib64/libstdc++.so.6', 'BINARY'),
  ('libsqlite3.so.0', '/lib64/libsqlite3.so.0', 'BINARY'),
  ('lib64/python2.7/config/Makefile',
   '/usr/lib64/python2.7/config/Makefile',
   'DATA'),
  ('include/python2.7/pyconfig-64.h',
   '/usr/include/python2.7/pyconfig-64.h',
   'DATA')],
 False,
 False,
 False,
 [])
